<?xml version="1.0" encoding="utf-8"?>
<!-- Generator: Adobe Illustrator 16.0.0, SVG Export Plug-In . SVG Version: 6.00 Build 0)  -->
<!DOCTYPE svg PUBLIC "-//W3C//DTD SVG 1.1//EN" "http://www.w3.org/Graphics/SVG/1.1/DTD/svg11.dtd">
<svg version="1.1" id="Capa_1" focusable="false" xmlns="http://www.w3.org/2000/svg" xmlns:xlink="http://www.w3.org/1999/xlink"
	 x="0px" y="0px" width="9.84px" height="12px" viewBox="0 0 9.84 12" enable-background="new 0 0 9.84 12" xml:space="preserve">
<path fill="#FF6F61" d="M9.045,1.863H6.807V1.137c0-0.203-0.051-0.391-0.152-0.563s-0.238-0.309-0.41-0.41S5.885,0.012,5.682,0.012
	h-1.5c-0.117,0-0.234,0.02-0.352,0.059S3.609,0.164,3.52,0.234s-0.17,0.15-0.24,0.24S3.154,0.668,3.115,0.785
	S3.057,1.02,3.057,1.137v0.727H0.795c-0.211,0-0.389,0.072-0.533,0.217S0.045,2.402,0.045,2.613v8.625
	c0,0.203,0.072,0.379,0.217,0.527s0.322,0.223,0.533,0.223h8.25c0.211,0,0.389-0.074,0.533-0.223s0.217-0.324,0.217-0.527V2.613
	c0-0.211-0.072-0.389-0.217-0.533S9.256,1.863,9.045,1.863z M3.807,1.137c0-0.102,0.037-0.189,0.111-0.264S4.08,0.762,4.182,0.762
	h1.5c0.102,0,0.189,0.037,0.264,0.111s0.111,0.162,0.111,0.264v0.727h-2.25V1.137z M9.045,11.238h-8.25V2.613h2.262v0.773
	c0,0.023,0.004,0.057,0.012,0.1s0.041,0.1,0.1,0.17s0.146,0.105,0.264,0.105c0.125,0,0.219-0.031,0.281-0.094
	S3.807,3.543,3.807,3.48V2.613h2.25v0.809L6.074,3.51l0.053,0.117l0.111,0.094l0.193,0.041c0.07,0,0.131-0.014,0.182-0.041
	s0.088-0.059,0.111-0.094s0.041-0.072,0.053-0.111s0.021-0.07,0.029-0.094V2.613h2.238V11.238z"/>
</svg>
