<?xml version="1.0" encoding="utf-8"?>
<!-- Generator: Adobe Illustrator 16.0.0, SVG Export Plug-In . SVG Version: 6.00 Build 0)  -->
<!DOCTYPE svg PUBLIC "-//W3C//DTD SVG 1.1//EN" "http://www.w3.org/Graphics/SVG/1.1/DTD/svg11.dtd">
<svg version="1.1" id="Capa_1" focusable="false" xmlns="http://www.w3.org/2000/svg" xmlns:xlink="http://www.w3.org/1999/xlink"
	 x="0px" y="0px" width="12.48px" height="12px" viewBox="0 0 12.48 12" enable-background="new 0 0 12.48 12" xml:space="preserve"
	>
<path fill="#FF6F61" d="M12.158,6.012L6.521,0.117C6.49,0.078,6.451,0.049,6.404,0.029S6.306,0,6.252,0
	C6.15,0,6.06,0.039,5.982,0.117l-5.66,5.895C0.275,6.066,0.244,6.125,0.228,6.188S0.215,6.314,0.234,6.381s0.053,0.123,0.1,0.17
	c0.039,0.031,0.082,0.057,0.129,0.076S0.556,6.654,0.603,6.65s0.094-0.016,0.141-0.035S0.83,6.57,0.861,6.539l0.516-0.527v5.613
	c0,0.102,0.035,0.189,0.105,0.264S1.642,12,1.752,12h2.613c0.031,0,0.061-0.004,0.088-0.012s0.053-0.018,0.076-0.029
	s0.047-0.027,0.07-0.047s0.043-0.039,0.059-0.059s0.029-0.041,0.041-0.064s0.021-0.051,0.029-0.082s0.012-0.059,0.012-0.082
	l0.012-3.75H7.74v3.75c0,0.102,0.037,0.189,0.111,0.264S8.013,12,8.115,12h2.625c0.102,0,0.189-0.037,0.264-0.111
	s0.111-0.162,0.111-0.264V6.012l0.504,0.527c0.07,0.078,0.16,0.117,0.27,0.117c0.102,0,0.188-0.035,0.258-0.105
	c0.07-0.078,0.107-0.168,0.111-0.27S12.228,6.09,12.158,6.012z M10.365,5.332v5.918H8.49V7.5c0-0.102-0.037-0.189-0.111-0.264
	S8.217,7.125,8.115,7.125H4.377c-0.102,0-0.189,0.037-0.264,0.111S4.002,7.398,4.002,7.5L3.99,11.25H2.127V5.332
	c0-0.031-0.004-0.063-0.012-0.094l4.137-4.313l4.125,4.313C10.369,5.27,10.365,5.301,10.365,5.332z"/>
</svg>
