<?xml version="1.0" encoding="utf-8"?>
<!-- Generator: Adobe Illustrator 16.0.0, SVG Export Plug-In . SVG Version: 6.00 Build 0)  -->
<!DOCTYPE svg PUBLIC "-//W3C//DTD SVG 1.1//EN" "http://www.w3.org/Graphics/SVG/1.1/DTD/svg11.dtd">
<svg version="1.1" id="Capa_1" xmlns="http://www.w3.org/2000/svg" xmlns:xlink="http://www.w3.org/1999/xlink" x="0px" y="0px"
	  width="578px" height="501.333px" viewBox="0 0 583.896 456.161" enable-background="new 0 0 583.896 456.161"
	 xml:space="preserve">
<g>
	<linearGradient id="SVGID_1_" gradientUnits="userSpaceOnUse" x1="590.2368" y1="401.6333" x2="448.4272" y2="156.0119">
		<stop  offset="0" style="stop-color:#FF9966"/>
		<stop  offset="0.0337" style="stop-color:#FF9466"/>
		<stop  offset="0.2758" style="stop-color:#FF7864"/>
		<stop  offset="0.5185" style="stop-color:#FF6462"/>
		<stop  offset="0.7602" style="stop-color:#FF5861"/>
		<stop  offset="1" style="stop-color:#FF5461"/>
	</linearGradient>
	<ellipse fill="url(#SVGID_1_)" cx="519.33" cy="278.821" rx="46.147" ry="161.542"/>
	<g>
		<ellipse fill="#FFCCB2" cx="519.331" cy="278.821" rx="30.92" ry="108.234"/>
	</g>
	<g>
		<ellipse fill="#FFEBE0" cx="515.563" cy="278.821" rx="17.954" ry="62.847"/>
	</g>
	<path fill="#0FAA7F" d="M513.702,281.59c0,0-51.875-18.741-131.11,25.114c-79.231,43.855-55.046,80.963-293.187,64.162
		l-43.426,50.63l-27.083-2.018v16.89l17.505,0.512l0,0c33.951,1.732,302.796,12.876,352.145-65.805
		c52.7-84.013,114.007-81.519,123.52-79.377c0.457,0.104,2.786,0.924,2.786,0.924L513.702,281.59z"/>
	<g>
		<path fill="#7EA7DF" d="M280.579,172.078c-4.082,0-7.987,0.603-11.586,1.703c-4.744-11.509-16.529-19.66-30.321-19.66
			c-15.329,0-28.184,10.073-31.636,23.636c-2.649-1.002-5.533-1.557-8.559-1.557c-12.762,0-23.106,9.833-23.106,21.966h33.807
			h12.404h26.442h20.145h44.961C313.129,183.759,298.556,172.078,280.579,172.078z"/>
	</g>
	<g id="XMLID_817_">
		<polygon id="XMLID_820_" fill="#FFB7B0" points="220.136,192.485 243.403,179.054 266.1,192.485 243.403,205.919 		"/>
		<polygon id="XMLID_819_" fill="#CA6F61" points="220.136,192.485 220.136,378.963 242.114,384.114 243.403,205.919 		"/>
		<polygon id="XMLID_818_" fill="#FF6F61" points="266.1,192.485 266.1,378.963 242.114,384.114 243.403,205.919 		"/>
	</g>
	<g id="XMLID_308_">
		<polygon id="XMLID_816_" fill="#FFB7B0" points="163.816,262.95 187.082,249.517 209.778,262.95 187.082,276.382 		"/>
		<polygon id="XMLID_815_" fill="#CA6F61" points="163.816,262.95 163.816,378.214 187.082,390.918 187.082,276.382 		"/>
		<polygon id="XMLID_814_" fill="#FF6F61" points="209.778,262.95 209.778,377.485 187.082,390.918 187.082,276.382 		"/>
	</g>
	<g id="XMLID_825_">
		<polygon id="XMLID_828_" fill="#FFB7B0" points="331.354,69.72 354.62,56.286 377.318,69.72 354.62,83.151 		"/>
		<polygon id="XMLID_827_" fill="#CA6F61" points="331.354,69.72 331.354,353.942 354.337,322.551 354.62,83.151 		"/>
		<polygon id="XMLID_826_" fill="#FF6F61" points="377.318,69.72 377.534,321.155 354.337,322.551 354.62,83.151 		"/>
	</g>
	<g id="XMLID_829_">
		<polygon id="XMLID_832_" fill="#FFB7B0" points="387.647,37.539 410.915,24.105 433.611,37.539 410.915,50.971 		"/>
		<polygon id="XMLID_831_" fill="#CA6F61" points="387.647,37.539 387.647,300.05 410.915,301.112 410.915,50.971 		"/>
		<polygon id="XMLID_830_" fill="#FF6F61" points="433.611,37.539 433.611,287.679 410.915,301.112 410.915,50.971 		"/>
	</g>
	<g id="XMLID_833_">
		<polygon id="XMLID_836_" fill="#FFB7B0" points="275.667,117.975 298.934,104.541 321.629,117.975 298.934,131.408 		"/>
		<polygon id="XMLID_835_" fill="#CA6F61" points="275.667,117.975 275.667,380.486 298.934,381.548 298.934,131.408 		"/>
		<polygon id="XMLID_834_" fill="#FF6F61" points="321.629,117.975 321.629,368.115 298.934,381.548 298.934,131.408 		"/>
	</g>
	<g>
		<path fill="#7EA7DF" d="M474.071,66.551c-2.887,0-5.646,0.425-8.189,1.202c-3.354-8.134-11.681-13.894-21.425-13.894
			c-10.837,0-19.919,7.118-22.359,16.701c-1.873-0.707-3.911-1.098-6.048-1.098c-9.019,0-16.328,6.949-16.328,15.521h23.889h8.767
			h18.688h14.236h31.772C497.074,74.803,486.774,66.551,474.071,66.551z"/>
	</g>
	<g>
		<path fill="#7EA7DF" d="M338.239,101.097c-1.767,0-3.455,0.261-5.014,0.736c-2.052-4.98-7.15-8.506-13.118-8.506
			c-6.634,0-12.194,4.357-13.688,10.227c-1.146-0.434-2.394-0.673-3.702-0.673c-5.521,0-9.996,4.253-9.996,9.502h14.626h5.368
			h11.438h8.715h19.454C352.322,106.15,346.016,101.097,338.239,101.097z"/>
	</g>
	<linearGradient id="SVGID_2_" gradientUnits="userSpaceOnUse" x1="18.4185" y1="350.1772" x2="514.8208" y2="350.1772">
		<stop  offset="0.4146" style="stop-color:#0FDBA1"/>
		<stop  offset="0.4522" style="stop-color:#1DDDA7"/>
		<stop  offset="0.5618" style="stop-color:#41E2B5"/>
		<stop  offset="0.672" style="stop-color:#5EE7C0"/>
		<stop  offset="0.782" style="stop-color:#72EAC8"/>
		<stop  offset="0.8914" style="stop-color:#7EEBCC"/>
		<stop  offset="1" style="stop-color:#82ECCE"/>
	</linearGradient>
	<path fill="url(#SVGID_2_)" d="M513.702,281.59c0,0-60.111-21.34-140.79,19.793c-80.68,41.133-57.773,79.041-295.205,54.141
		l-59.288,63.955c0,0,302.604,28.606,358.132-53.563c55.529-82.171,129.088-77.162,137.151-73.695
		c0.415,0.18,1.119,0.401,1.119,0.401L513.702,281.59z"/>
	<g>
		<g>
			<g>
				<path fill="#EEA886" d="M437.371,198.904c0,0,2.288-2.095,2.645-2.403c0.359-0.309,1.766-0.45,3.273-0.224
					c1.464,0.22,3.544,0.305,3.694,0.519c0.155,0.215,0.388,0.333,0.394,1.008c0.005,0.675-0.36,1.248-0.36,1.248
					s0.399,0.827-0.107,1.499c0,0,0.34,0.798-0.358,1.466c0,0,0.313,0.787-0.236,1.232c0,0-1.315,0.157-1.786,0.357
					c-0.468,0.199-3.987,0.199-6.655-0.072C437.873,203.534,436.201,202.57,437.371,198.904z"/>
			</g>
		</g>
		<g>
			<g>
				<path fill="#CF8C6C" d="M441.76,199.262c0,0-0.646,1.418-1.027,1.724c-0.382,0.305,2.467,2.258,2.467,2.258
					S443.462,200.091,441.76,199.262z"/>
			</g>
		</g>
		<g>
			<g>
				<path fill="#DB9C7C" d="M446.566,196.767c0,0-3.856,0.218-3.899,0.843c-0.042,0.626,0.323,0.881,0.323,0.881l-1.549,0.81
					c0,0-0.72,1.115,0.703,1.574c0,0-0.782,0.971,0.648,1.251c0,0-0.231,0.871,0.407,1.118c0.639,0.248,3.114,0.006,3.114,0.006
					s0.521-0.283,0.26-1.228c0,0,0.71-0.602,0.362-1.466c0,0,0.635-0.929,0.251-1.859c0,0,0.526-1.063-0.223-1.927
					C446.964,196.77,446.728,196.757,446.566,196.767z"/>
			</g>
		</g>
		<g>
			<g>
				<path fill="#EEA886" d="M440.137,196.481c0,0,2.424,1.075,3.488,2.241c0.24,0.265,0.426,0.565,0.272,0.889
					c-0.154,0.322-0.82,0.51-1.893,0.098c-1.072-0.41-2.651-0.453-2.651-0.453S438.375,198.51,440.137,196.481z"/>
			</g>
		</g>
		<g>
			<path fill="#EEA886" d="M447.187,198.696c0,0-4.185-0.264-4.56-0.066c-0.375,0.198-0.287-1.335,0.047-1.483
				c0.332-0.146,3.814-0.473,4.165-0.428C447.187,196.768,447.957,197.94,447.187,198.696z"/>
		</g>
		<g>
			<path fill="#EEA886" d="M446.093,196.59c0,0,6.839,0.494,6.834,1.29c-0.004,0.762-1.596,1.294-6.836,0.705
				C440.997,198.011,446.093,196.59,446.093,196.59z"/>
		</g>
		<g>
			<g>
				<g>
					<path fill="#292C47" d="M410.629,296.85c0,0,3.679,2.107,5.345,2.886c1.661,0.778,8.088,0.918,8.73,1.515
						c0.643,0.593,0.437,2.516-0.624,2.726c-1.061,0.211-8.856,1.024-11.469,0.452c-2.614-0.572-7.467,0.521-8.551,0.171
						c-1.083-0.351-0.47-6.176-0.071-7.486C404.387,295.803,410.629,296.85,410.629,296.85z"/>
				</g>
			</g>
		</g>
		<g>
			<g>
				<g>
					<path fill="#3D416B" d="M410.432,294.396l0.197,2.454c0,0-4.865,0.981-6.64,0.263l0.332-2.476L410.432,294.396z"/>
				</g>
			</g>
		</g>
		<g>
			<g>
				<g>
					<path fill="#292C47" d="M345.591,310.775c0,0,3.501,2.395,5.097,3.305c1.594,0.911,7.987,1.565,8.58,2.209
						c0.592,0.644,0.233,2.543-0.841,2.667c-1.076,0.127-8.908,0.313-11.467-0.469c-2.56-0.777-7.484-0.078-8.538-0.516
						c-1.053-0.437,0.029-6.193,0.53-7.468C339.456,309.23,345.591,310.775,345.591,310.775z"/>
				</g>
			</g>
		</g>
		<g>
			<g>
				<g>
					<path fill="#3D416B" d="M346.053,308.424l-0.462,2.352c0,0-4.929,0.586-6.354-0.261l0.526-2.439L346.053,308.424z"/>
				</g>
			</g>
		</g>
		<path fill="#292C47" d="M386.103,235.477c-0.474,1.578-1.687,4.951-2.991,8.484c-0.29,0.787-0.585,1.58-0.878,2.363
			c-1.771,4.753-3.45,9.136-3.45,9.136c-2.562,5.845-8.56,18.314-11.464,20.503c-3.919,2.952-21.267,34.038-21.267,34.038
			l-7.813-0.927c0,0,8.496-23.235,12.033-28.377c3.949-5.74,10.147-13.242,10.81-19.618c0.414-4.002,2.89-16.432,2.89-16.432
			s2.898-13.933,9.175-23.033C374.714,219.341,386.103,235.477,386.103,235.477z"/>
		<g>
			<path fill="#292C47" d="M394.444,234.077c0,0,21.76,16.226,24.184,19.581c2.427,3.354,0.95,8.646,0.588,10.277
				c-0.363,1.633-7.279,28.407-7.459,31.218c0,0-6.707,1.655-8.43-0.519c0,0,2.328-25.433,3.869-30.69
				c1.541-5.257-5.832-8.71-10.094-10.613c-4.261-1.903-25.813-12.262-25.434-16.455c0.263-2.903,0.651-5.63,0.651-5.63
				S376.557,227.826,394.444,234.077z"/>
		</g>
		<path fill="#292C47" d="M394.667,192.694c0,0,14.128,2.657,20.68,3.473c2.052,0.257,21.464,1.736,22.257,1.859
			c0.796,0.122,0.195,6.398,0.195,6.398s-21.677-1.443-22.974-1.331c-1.296,0.113-21.438-1.289-23.295-2.634
			c-1.854-1.346-3.214-3.559-2.048-5.719C391.116,191.713,394.667,192.694,394.667,192.694z"/>
		<g>
			<path fill="#CFBEB6" d="M393.969,190.683c0,0,2.435,7.134,2.448,11.207c0.018,4.071-3.779,16.31-4.046,18.571
				c-0.716,6.094,2.072,13.616,2.072,13.616l-22.448,4.311c0,0-0.639-6.448-0.53-14.195c0.109-7.745,2.355-14.101,2.91-18.53
				c1.892-15.112,14.271-18.487,14.271-18.487L393.969,190.683z"/>
		</g>
		<g>
			<path fill="#EEA886" d="M404.287,173.05c0,0,2.024,3.756,1.022,4.34c-0.832,0.482,0.97,4.17,1.206,4.772
				c0.237,0.602-1.505,1.04-1.873,1.427c-0.369,0.39-1.465,5.16-2.895,5.303c-1.433,0.144-7.887-2.101-9.644-3.927
				c-1.758-1.827-3.2-10.08-2.026-13.561C391.25,167.924,400.708,166.485,404.287,173.05z"/>
		</g>
		<g>
			<path fill="#EEA886" d="M397.443,187.868c0,0-0.173,0.379-0.429,0.975c-0.106,0.248-0.229,0.535-0.356,0.844
				c-0.099,0.236-0.204,0.487-0.31,0.746c-0.661,1.629-1.398,3.609-1.508,4.591c-0.201,1.838-5.347-7.805-5.347-7.805
				s2.416-5.457,4.112-11.914C395.302,168.85,397.443,187.868,397.443,187.868z"/>
		</g>
		<g>
			<path fill="#D88A51" d="M404.689,173.862c0,0,2.069-4.057-1.688-7.066c-3.759-3.01-10.687,2.273-11.468,2.476
				c-0.779,0.201-5.084,0.469-2.974,8.283c1.908,7.059,2.227,6.499,2.227,6.499s1.396-3.407,2.211-3.998
				c1.267-0.922,4.049-0.698,4.049-0.698s-1.327-3.52,0.746-4.018C399.864,174.841,402.594,173.084,404.689,173.862z"/>
		</g>
		<g>
			<path fill="#EEA886" d="M394.838,177.341c-0.184-0.482-0.773-2.558-2.553-1.339c-1.78,1.22,1.109,5.129,1.42,5.179
				C394.017,181.231,396.377,181.402,394.838,177.341z"/>
		</g>
		<g>
			<path fill="#EDDAD3" d="M389.861,186.352c0,0,3.491,5.307,5.619,7.534l-0.66,3.68l-6.173-10.391L389.861,186.352z"/>
		</g>
		<path fill="#A77860" d="M397.443,187.868c0,0-0.173,0.379-0.429,0.975c-0.106,0.248-0.229,0.535-0.356,0.844
			c-3.443-2.558-4.263-4.413-4.286-4.471C393.979,186.381,397.443,187.868,397.443,187.868z"/>
		<path fill="#FAA146" d="M395.442,194.104c0,0,0.634,2.414,0.459,3.35c-0.066,0.348-1.046-0.094-1.046-0.094L395.442,194.104z"/>
		<path fill="#23263D" d="M394.444,234.077c0,0-0.637-1.956-0.774-2.453l-21.886,4.078l0.212,2.686
			C371.996,238.388,388.003,235.503,394.444,234.077z"/>
		<g>
			<path fill="#6E4629" d="M357.006,248.185l-9.15-1.138c-0.928-0.115-1.591-0.965-1.477-1.894l0.719-5.771
				c0.117-0.931,0.966-1.591,1.895-1.477l9.148,1.138c0.931,0.116,1.592,0.966,1.477,1.894l-0.717,5.771
				C358.785,247.638,357.936,248.3,357.006,248.185z M348.852,239.038c-0.307-0.038-0.583,0.179-0.623,0.483l-0.719,5.771
				c-0.036,0.306,0.182,0.584,0.486,0.623l9.151,1.138c0.306,0.038,0.584-0.18,0.624-0.487l0.717-5.769
				c0.036-0.306-0.183-0.585-0.487-0.622L348.852,239.038z"/>
		</g>
		<g>
			
				<rect x="335.614" y="242.965" transform="matrix(0.9924 0.1233 -0.1233 0.9924 33.9149 -41.4294)" fill="#D88A51" width="32.215" height="20.729"/>
		</g>
		<g>
			
				<rect x="336.324" y="243.009" transform="matrix(0.9924 0.1233 -0.1233 0.9924 33.2133 -41.5583)" fill="#B57343" width="32.217" height="9.206"/>
		</g>
		<g>
			
				<rect x="349.832" y="250.022" transform="matrix(0.9924 0.1231 -0.1231 0.9924 33.5221 -41.4189)" fill="#6E4629" width="4.444" height="1.271"/>
		</g>
		<g>
			<path fill="#EFAA88" d="M348.98,238.977c0,0-0.101-0.801,0.029-1.174c0,0,0.281-0.659,0.453-1.14
				c0.057-0.151,0.101-0.286,0.118-0.377c0.08-0.375,0.146-1.221,0.595-2.065c0.445-0.845,2.324-3.667,2.324-3.667l2.691,1.173
				l2.524,0.33c0,0,0.38,5.789,0.057,6.626c-0.032,0.079-0.067,0.159-0.105,0.23c-0.344,0.682-0.886,1.043-1.107,1.379
				c-0.08,0.124-0.978,1.293-1.418,1.309c-0.612,0.022-1.043-0.208-1.288-0.55c0,0-1.194-0.008-1.815-0.521
				c0,0-1.106,0.029-1.695-0.83C350.342,239.699,349.217,239.601,348.98,238.977z"/>
		</g>
		<path fill="#323657" d="M387.493,197.117c0,0-12.919,10.032-17.553,15.564c-1.452,1.735-10.306,18.982-10.889,19.641
			c-0.582,0.655-7.143-1.402-7.143-1.402s10.497-21.589,11.163-22.85c0.664-1.26,19.353-18.669,21.688-19.572
			c2.336-0.906,2.634,0.293,3.926,2.643C390.5,194.436,387.493,197.117,387.493,197.117z"/>
		<g>
			<path fill="#323657" d="M394.784,204.832c-0.494,1.354-0.955,2.725-1.386,4.101l0,0c-0.948,3.03-1.755,6.092-2.436,9.076
				c-0.242,1.063-0.469,2.12-0.682,3.16c-2.53,12.398-9.169,21.495-9.169,21.495s-9.95-0.793-12.265-2.44
				c0,0,0.641-14.28,3.823-28.027c0.247-1.063,0.506-2.123,0.784-3.171c0.002-0.001,0.002-0.001,0.002-0.001
				c2.925-11.085,7.646-21.055,15.19-21.85C388.792,187.352,397.377,197.721,394.784,204.832z"/>
		</g>
		<path fill="#323657" d="M372.448,213.177c0,0-0.993,12.729-9.661,25.211c-1.058,1.524,11.99,3.493,11.99,3.493L372.448,213.177z"
			/>
		<path fill="#1D2133" d="M382.397,201.211c-2.998,3.24-9.727,10.985-9.727,10.985c0.247-1.063,0.506-2.123,0.784-3.171
			c0.002-0.001,0.002-0.001,0.002-0.001C375.822,206.655,382.297,201.294,382.397,201.211z"/>
		<g>
			<g>
				<path fill="#FAA146" d="M395.91,197.382c0,0-1.321,8.93-9.006,9.537c-6.884,0.544-16.871,3.997-20.11,6.65l-4.007,3.492
					l0.962-4.631c0,0,2.891-7.341,23.072-6.425c0,0,6.187,1.156,8.205-9.591C395.026,196.415,396.039,196.944,395.91,197.382z"/>
			</g>
		</g>
	</g>
	<g>
		<g>
			<path fill="#EEA886" d="M136.841,276.365c0,0-1.603,0.897-2.561,1.208c-0.96,0.31-0.021-3.288-0.021-3.288L136.841,276.365z"/>
		</g>
		<g>
			<path fill="#EEA886" d="M133.65,273.631c0,0,0.233-2.783,0.283-3.207c0.046-0.425,0.821-1.332,1.801-2.295
				c0.978-0.963,2.732-1.826,2.963-1.778c0.231,0.049,0.489-0.009,0.904,0.434c0.416,0.444,0.523,1.047,0.523,1.047
				s0.773,0.304,0.849,1.057c0,0,0.712,0.321,0.658,1.19c0,0,0.688,0.331,0.595,0.961c0,0-0.773,0.909-0.962,1.329
				c-0.189,0.418-2.492,2.544-4.423,3.997C136.841,276.365,135.118,276.775,133.65,273.631z"/>
		</g>
		<g>
			<path fill="#CF8C6C" d="M136.773,271.185c0,0,0.441,1.333,0.375,1.77c-0.067,0.436,3.098,0.381,3.098,0.381
				S138.41,270.692,136.773,271.185z"/>
		</g>
		<g>
			<path fill="#DB9C7C" d="M138.43,266.595c0,0-2.42,2.501-2.065,2.942c0.354,0.439,0.752,0.385,0.752,0.385l-0.53,1.482
				c0,0,0.204,1.18,1.43,0.613c0,0,0.076,1.122,1.193,0.433c0,0,0.38,0.718,0.953,0.49c0.574-0.228,2.063-1.901,2.063-1.901
				s0.181-0.56-0.577-0.981c0,0,0.098-0.831-0.66-1.19c0,0-0.013-0.688-0.834-1.069c0,0-0.202-1.476-1.458-1.447
				C138.697,266.351,138.532,266.487,138.43,266.595z"/>
		</g>
		<g>
			<path fill="#EEA886" d="M134,270.336c0,0,2.262-0.771,3.682-0.648c0.32,0.027,0.626,0.112,0.722,0.42
				c0.098,0.31-0.228,0.839-1.192,1.223c-0.962,0.385-2.03,1.321-2.03,1.321S134.076,272.756,134,270.336z"/>
		</g>
		<g>
			<path fill="#EEA886" d="M104.151,273.591c0,0,8.385,6.417,13.874,8.905c1.721,0.78,15.016-8.642,15.625-8.865
				c0.688-0.25,2.069,3.322,2.069,3.322s-16.123,14.078-17.286,13.825c-1.161-0.253-17.867-9.593-19.119-11.27
				s-1.837-3.972-0.236-5.536C101.32,271.772,104.151,273.591,104.151,273.591z"/>
		</g>
		<g>
			<linearGradient id="SVGID_3_" gradientUnits="userSpaceOnUse" x1="104.9282" y1="280.562" x2="111.5757" y2="280.562">
				<stop  offset="0" style="stop-color:#FF9966"/>
				<stop  offset="0.0337" style="stop-color:#FF9466"/>
				<stop  offset="0.2758" style="stop-color:#FF7864"/>
				<stop  offset="0.5185" style="stop-color:#FF6462"/>
				<stop  offset="0.7602" style="stop-color:#FF5861"/>
				<stop  offset="1" style="stop-color:#FF5461"/>
			</linearGradient>
			<polygon fill="url(#SVGID_3_)" points="108.726,286.153 111.576,278.325 107.496,274.971 104.928,284.084 			"/>
		</g>
		<g>
			<polygon fill="#EEA886" points="53.866,328.347 52.078,327.277 49.709,331.932 51.423,332.995 			"/>
		</g>
		<g>
			<polygon fill="#EEA886" points="132.566,368.807 133.554,370.547 137.738,367.782 136.811,366.081 			"/>
		</g>
		<g>
			<path fill="#FFC654" d="M103.269,322.646c-0.731,0.683-1.944,1.985-3.289,3.486c-0.161,0.18-0.325,0.362-0.49,0.546
				c-0.396,0.447-0.805,0.907-1.21,1.366c-0.188,0.217-0.378,0.432-0.565,0.649c-2.568,2.936-4.949,5.749-4.949,5.749
				c-0.002,0.002-11.092,10.808-14.658,9.82c-7.743-2.143-27.811-11.12-27.811-11.12l3.875-6.739c0,0,7.495,3.328,12.457,4.831
				c5.646,1.706,3.933,1.449,9.194,2.783c3.228,0.818,8.32-12.234,8.366-12.326c2.046-5.035,4.978-11.479,7.162-13.124
				C93.183,307.186,103.269,322.646,103.269,322.646z"/>
		</g>
		<g>
			<path fill="#FFC654" d="M125.727,337.788c-0.394-2.623-4.695-9.425-7.736-13.47l0,0c-4.792-6.476-7.989-11.599-7.989-11.599
				s-21.812,2.11-21.374,4.255c0.828,4.069,10.328,9.127,12.221,10.64l4.606,2.896c0,0,4.095,2.792,6.977,5.265
				c3.856,3.311,3.163,4.49,5.588,9.453c2.176,4.444,12.881,25.205,12.881,25.205l6.487-3.812
				C137.387,366.621,126.337,341.856,125.727,337.788z"/>
		</g>
		<g>
			<g>
				<linearGradient id="SVGID_4_" gradientUnits="userSpaceOnUse" x1="85.4243" y1="292.0195" x2="110.0015" y2="292.0195">
					<stop  offset="0" style="stop-color:#FF9966"/>
					<stop  offset="0.0337" style="stop-color:#FF9466"/>
					<stop  offset="0.2758" style="stop-color:#FF7864"/>
					<stop  offset="0.5185" style="stop-color:#FF6462"/>
					<stop  offset="0.7602" style="stop-color:#FF5861"/>
					<stop  offset="1" style="stop-color:#FF5461"/>
				</linearGradient>
				<path fill="url(#SVGID_4_)" d="M107.875,295.029c0.16,2.074,2.126,17.69,2.126,17.69l-24.577,4.646
					c0,0,3.807-8.386,3.152-15.425c-0.187-1.987-0.205-3.89-0.141-5.688c0.067-1.773,0.222-3.445,0.388-5
					c0.26-2.459,0.55-4.619,0.583-6.412c0.239-13.899,11.143-18.168,11.143-18.168l5.172,2.662c0,0,2.904,6.238,3.318,9.93
					C109.452,282.959,107.716,292.958,107.875,295.029z"/>
			</g>
		</g>
		<g>
			<g>
				<path fill="#EEA886" d="M113.359,252.323c0,0,2.206,3.212,1.354,3.842c-0.707,0.519,1.288,3.688,1.56,4.211
					c0.274,0.524-1.262,1.092-1.558,1.479c-0.299,0.389-0.824,4.824-2.111,5.095s-7.361-1.136-9.134-2.621
					c-1.773-1.487-3.886-8.835-3.164-12.109C101.03,248.945,109.475,246.719,113.359,252.323z"/>
			</g>
		</g>
		<g>
			<g>
				<path fill="#EEA886" d="M108.598,266.439c0,0-0.12,0.363-0.291,0.927c-0.073,0.236-0.158,0.509-0.246,0.802
					c-0.064,0.225-0.135,0.463-0.203,0.707c-0.443,1.543-0.919,3.412-0.92,4.313c-0.004,1.689-6.389-6.516-6.389-6.516
					s2.738-4.236,3.34-11.258C104.413,249.345,108.598,266.439,108.598,266.439z"/>
			</g>
		</g>
		<g>
			<g>
				<path fill="#16202E" d="M113.807,253.024c0,0,0.078-3.392-1.771-4.575c-4.629-2.96-9.646,1.452-10.333,1.712
					c-0.689,0.258-4.406,2.599-2.174,7.788c1.771,4.108,2.813,4.78,2.813,4.78s1.018-2.874,1.697-3.488
					c1.062-0.96,2.906-1.729,2.906-1.729s-0.373-1.987,0.744-2.475C109.475,254.261,111.831,252.521,113.807,253.024z"/>
			</g>
		</g>
		<g>
			<g>
				<path fill="#EEA886" d="M105.208,257.142c-0.214-0.42-0.953-2.244-2.448-0.965c-1.498,1.279,1.505,4.545,1.794,4.561
					C104.841,260.752,107,260.678,105.208,257.142z"/>
			</g>
		</g>
		<g>
			<g>
				<path fill="#EFAA88" d="M57.946,308.688c0,0,0.056-0.735,0.236-1.045c0,0,0.373-0.537,0.615-0.936
					c0.077-0.127,0.14-0.239,0.173-0.317c0.14-0.319,0.353-1.064,0.905-1.738c0.552-0.676,2.746-2.859,2.746-2.859l2.192,1.538
					l2.199,0.752c0,0-0.708,5.248-1.151,5.937c-0.044,0.066-0.089,0.132-0.137,0.188c-0.431,0.546-0.979,0.772-1.24,1.031
					c-0.095,0.097-1.109,0.979-1.503,0.913c-0.554-0.089-0.896-0.376-1.054-0.723c0,0-1.07-0.224-1.53-0.798
					c0,0-0.993-0.175-1.364-1.051C59.034,309.58,58.045,309.291,57.946,308.688z"/>
			</g>
		</g>
		<g>
			<path fill="#A77860" d="M108.598,266.439c0,0-0.12,0.363-0.291,0.927c-0.073,0.236-0.158,0.509-0.246,0.802
				c-3.371-1.985-4.295-3.589-4.321-3.638C105.312,265.429,108.598,266.439,108.598,266.439z"/>
		</g>
		<g>
			<path fill="#343A5C" d="M52.078,327.277c0,0-1.229,2.507-1.723,3.556c-0.492,1.046,0.051,1.891-0.726,1.698
				c-0.773-0.192-3.787-0.219-4.854,0.39c-1.065,0.61-7.666,4.931-8.96,3.716c-1.294-1.214,0.999-4.103,4.646-7.726
				c3.642-3.621,2.854-4.692,5.985-6.326C47.424,322.077,52.078,327.277,52.078,327.277z"/>
		</g>
		<g>
			<path fill="#343A5C" d="M133.394,370.265c0,0,2.313-1.485,3.26-2.111c0.944-0.626,0.921-1.61,1.472-1.054
				c0.551,0.556,3.062,2.11,4.267,2.144c1.204,0.033,8.933-0.232,9.4,1.445c0.466,1.676-2.929,2.93-7.826,4.111
				c-4.894,1.181-4.78,2.479-8.233,2.254C134.654,376.982,133.394,370.265,133.394,370.265z"/>
		</g>
		<g>
			<path fill="#16202E" d="M113.807,253.024c0,0,1.849-2.436,0-6.91c0,0-0.668,1.94-4.93,1.323L113.807,253.024z"/>
		</g>
		<g>
			<path fill="#CA6F61" d="M100.224,278.414c0,0-3.784,5.044-8.027,6.788l-0.381-1.722L100.224,278.414z"/>
		</g>
		<g>
			<path fill="#EEA886" d="M99.989,278.232c0,0-13.377,6.631-18.525,10.738c-1.615,1.288-13.811,14.63-14.45,15.111
				s-4.654-2.028-4.654-2.028s12.974-17.448,13.799-18.453c0.822-1.007,17.748-12.284,21.557-12.931
				c2.253-0.382,4.424-0.119,5.152,2.215C103.891,276.163,99.989,278.232,99.989,278.232z"/>
		</g>
		<g>
			<linearGradient id="SVGID_5_" gradientUnits="userSpaceOnUse" x1="89.1665" y1="276.1826" x2="103.5215" y2="276.1826">
				<stop  offset="0" style="stop-color:#FF9966"/>
				<stop  offset="0.0337" style="stop-color:#FF9466"/>
				<stop  offset="0.2758" style="stop-color:#FF7864"/>
				<stop  offset="0.5185" style="stop-color:#FF6462"/>
				<stop  offset="0.7602" style="stop-color:#FF5861"/>
				<stop  offset="1" style="stop-color:#FF5461"/>
			</linearGradient>
			<path fill="url(#SVGID_5_)" d="M103.037,270.977c0,0-2.487-6.446-13.87,3.291l2.649,9.213
				C91.816,283.48,106.325,277.425,103.037,270.977z"/>
		</g>
		<g>
			<path fill="#B0573A" d="M99.49,326.678c-0.396,0.447-0.805,0.907-1.21,1.366c-0.188,0.217-0.378,0.432-0.565,0.649
				c-3.102-3.104-6.589-8.003-6.697-8.153C92.438,322.123,99.49,326.678,99.49,326.678z"/>
		</g>
	</g>
	<g>
		<g>
			<path fill="#985E44" d="M250.638,261.427c0,0-4.905-3.47-8.243,1.074c-3.335,4.547,2.413,13.226-0.465,15.804
				c-2.877,2.578-14.518,1.134-13.128,8.565c0,0,1.891-5.058,7.234-4.081c5.347,0.976,12.084-0.911,10.959-8.067
				c-1.125-7.155,2.529-5.293,2.875-7.403C250.211,265.212,250.638,261.427,250.638,261.427z"/>
		</g>
		<g>
			<path fill="#FAB46C" d="M250.158,261.433c0,0-1.747,1.631-0.802,6.052C249.356,267.484,246.382,263.43,250.158,261.433z"/>
		</g>
		<path fill="#F9CDBA" d="M286.043,306.458c0.402-0.035,2.286-0.274,2.905-0.334c0.62-0.057,1.408-0.282,1.586-0.419
			c0.178-0.136,1.431-0.18,2.55-0.362c1.119-0.182,1.628-0.534,1.627-0.731c-0.003-0.198-1.863-0.239-1.863-0.239
			s-1.592,0.133-1.583-0.075c0.005-0.211,1.472-0.571,1.667-0.614c0.193-0.044,2.645-0.868,3.083-1.474
			c0.443-0.609-0.007-1.007-0.007-1.007s0.48-0.435,0.448-0.816c-0.034-0.382-0.52-0.497-0.52-0.497
			c0.102-0.224-0.114-0.602-0.285-0.644c-0.451-0.108-2.63,0.623-3.166,0.854c-0.535,0.229-1.013,0.457-1.784,0.574
			c-0.771,0.12-0.281-0.658-0.281-0.658c1.065-1.246,1.521-1.583,1.438-2.762c-0.039-0.52-1.098,0.835-1.311,1.076
			c-0.216,0.24-1.653,1.076-1.907,1.63c-0.257,0.555-2.078,1.676-2.584,2.245c-0.127,0.146-0.377,0.289-0.855,0.393L286.043,306.458
			z"/>
		<g>
			<polygon fill="#F9CDBA" points="237.194,372.983 236.306,373.888 233.157,370.813 234.032,369.901 			"/>
		</g>
		<g>
			<path fill="#CA6F61" d="M233.132,370.69c0,0,2.151,2.05,2.779,2.516c0.623,0.467,1.643,0.226,1.626,0.966
				c-0.019,0.741-1.141,4.342-0.533,5.784c0.622,1.475,2.923,5.415,1.129,7.117c-1.796,1.699-9.999-10.399-11.26-11.25
				C225.616,374.973,233.132,370.69,233.132,370.69z"/>
		</g>
		<g>
			<polygon fill="#F9CDBA" points="296.354,370.944 296.749,372.149 292.642,373.489 292.163,372.338 			"/>
		</g>
		<g>
			<path fill="#4B5182" d="M264.544,345.035c0,0-4.653,9.336-6.337,10.901c-1.677,1.562-20.575,17.73-20.575,17.73l-5.558-4.438
				c0,0,5.842-5.968,9.887-11.614c1.556-2.166,3.852-4.206,5.135-7.202c1.117-2.612,1.093-2.489,1.966-5.912
				C249.196,343.973,264.544,345.035,264.544,345.035z"/>
		</g>
		<g>
			<path fill="#4B5182" d="M251.873,321.155c0,0-0.83,10.937-1.161,14.626c-0.438,4.839-1.005,6.013-1.649,8.719l14.198,2.63
				c0,0,5.12-7.939,4.58-10.034C267.3,335.002,251.873,321.155,251.873,321.155z"/>
		</g>
		<g>
			<linearGradient id="SVGID_6_" gradientUnits="userSpaceOnUse" x1="242.1147" y1="302.6455" x2="260.7505" y2="302.6455">
				<stop  offset="0" style="stop-color:#0FDBA1"/>
				<stop  offset="0.0642" style="stop-color:#1DDDA7"/>
				<stop  offset="0.2513" style="stop-color:#41E2B5"/>
				<stop  offset="0.4397" style="stop-color:#5EE7C0"/>
				<stop  offset="0.6276" style="stop-color:#72EAC8"/>
				<stop  offset="0.8146" style="stop-color:#7EEBCC"/>
				<stop  offset="1" style="stop-color:#82ECCE"/>
			</linearGradient>
			<path fill="url(#SVGID_6_)" d="M260.293,293.191c0,0-10.501,11.722-9.793,13.041c0.987,1.846,10.25,8.345,10.25,8.345
				l-2.763,2.949c0,0-18.015-7.659-15.661-12.966c2.352-5.307,10.995-16.796,10.995-16.796L260.293,293.191z"/>
		</g>
		<path fill="#4B5182" d="M294.232,351.923c-0.896-4.807-1.61-8.827-3.357-11.957c-1.746-3.128-11.891-13.59-11.891-13.59
			s-3.361-3.917-5.386-5.559c-0.943-0.766-0.867-2.626-0.867-2.626s-20.937-0.082-20.978,2.752
			c-0.039,2.835,0.725,7.545,2.888,10.411c3.255,4.309,15.6,7.953,15.6,7.953s9.606,5.063,11.589,6.864
			c1.982,1.799,2.803,3.221,4.387,7.108c1.581,3.887,4.598,19.752,4.598,19.752l8.425-3.168
			C299.239,369.864,295.47,358.572,294.232,351.923z"/>
		<g>
			<path fill="#F9CDBA" d="M253.807,273.773c0,0,1.401,4.838,0.494,6.637c-0.907,1.796,7.902,2.436,7.902,2.436
				s-1.791-4.051-0.965-6.058C261.918,275.132,253.807,273.773,253.807,273.773z"/>
		</g>
		<g>
			<path fill="#F9CDBA" d="M261.819,260.428c0,0,1.85,1.672,2.22,6.502c0,0,1.766,3.025,2.494,3.521
				c0.729,0.494-1.283,1.269-1.384,1.787c-0.097,0.518,0.049,2.785-1.062,4.463c-1.109,1.676-9.282-0.401-10.203-2.529
				c-0.923-2.127-9.085-11.166-1.349-13.631C260.276,258.076,261.819,260.428,261.819,260.428z"/>
		</g>
		<g>
			<linearGradient id="SVGID_7_" gradientUnits="userSpaceOnUse" x1="250.583" y1="300.7485" x2="273.7788" y2="300.7485">
				<stop  offset="0" style="stop-color:#0FDBA1"/>
				<stop  offset="0.0642" style="stop-color:#1DDDA7"/>
				<stop  offset="0.2513" style="stop-color:#41E2B5"/>
				<stop  offset="0.4397" style="stop-color:#5EE7C0"/>
				<stop  offset="0.6276" style="stop-color:#72EAC8"/>
				<stop  offset="0.8146" style="stop-color:#7EEBCC"/>
				<stop  offset="1" style="stop-color:#82ECCE"/>
			</linearGradient>
			<path fill="url(#SVGID_7_)" d="M253.942,280.3c0,0-0.81,2.991-1.904,6.126c-1.092,3.132-2.073,7.007-0.972,13.389
				c1.104,6.38,2.739,14.295,0.281,21.106c0,0,14.155,1.024,21.929-0.873c0,0,1.086-7.718,0.065-11.052
				c-3.116-10.177,0.678-8.807-1.726-13.432c-2.402-4.626-7.691-10.813-8.646-12.484L253.942,280.3z"/>
		</g>
		<g>
			<linearGradient id="SVGID_8_" gradientUnits="userSpaceOnUse" x1="253.9575" y1="300.0503" x2="286.2983" y2="300.0503">
				<stop  offset="0" style="stop-color:#0FDBA1"/>
				<stop  offset="0.0642" style="stop-color:#1DDDA7"/>
				<stop  offset="0.2513" style="stop-color:#41E2B5"/>
				<stop  offset="0.4397" style="stop-color:#5EE7C0"/>
				<stop  offset="0.6276" style="stop-color:#72EAC8"/>
				<stop  offset="0.8146" style="stop-color:#7EEBCC"/>
				<stop  offset="1" style="stop-color:#82ECCE"/>
			</linearGradient>
			<path fill="url(#SVGID_8_)" d="M285.18,302.5l0.399,1.837l0.105,0.478l0.613,2.8c0,0-17.799,6.499-21.543,2.063
				c-3.745-4.436-10.798-16.903-10.798-16.903l3.796-1.866l0.437-0.217l3.694-1.816c0,0,6.596,14.841,8.093,14.78
				C272.07,303.571,285.18,302.5,285.18,302.5z"/>
		</g>
		<g>
			<path fill="#E8734D" d="M262.97,283.08c0,0-0.376-2.124-0.147-2.759l-9.206-2.278l0.29,2.392
				C253.907,280.435,259.756,282.804,262.97,283.08z"/>
		</g>
		<g>
			<linearGradient id="SVGID_9_" gradientUnits="userSpaceOnUse" x1="253.3506" y1="290.8721" x2="263.2466" y2="290.8721">
				<stop  offset="0" style="stop-color:#0FDBA1"/>
				<stop  offset="0.0642" style="stop-color:#1DDDA7"/>
				<stop  offset="0.2513" style="stop-color:#41E2B5"/>
				<stop  offset="0.4397" style="stop-color:#5EE7C0"/>
				<stop  offset="0.6276" style="stop-color:#72EAC8"/>
				<stop  offset="0.8146" style="stop-color:#7EEBCC"/>
				<stop  offset="1" style="stop-color:#82ECCE"/>
			</linearGradient>
			<path fill="url(#SVGID_9_)" d="M263.247,291.874l-3.481,1.759l-0.438,0.221l-3.682,1.862c-4.562-5.688-1.07-8.529-0.144-9.143
				c0.088-0.058,0.15-0.096,0.184-0.114l0.012-0.005l0.015-0.007c0.077-0.033,0.153-0.063,0.23-0.089
				C261.357,284.388,263.247,291.874,263.247,291.874z"/>
		</g>
		<g>
			<path fill="#CA6F61" d="M292.43,373.49c0,0,2.813-0.953,3.519-1.289c0.703-0.337,0.962-1.352,1.609-0.993
				c0.647,0.359,3.315,3.025,4.877,3.157c1.596,0.135,6.155-0.073,6.825,2.307c0.672,2.381-13.854,4.024-15.193,4.743
				C292.731,382.136,292.43,373.49,292.43,373.49z"/>
		</g>
		<g>
			<path fill="#985E44" d="M262.911,262.117c0,0-0.183,2.213-7.47,5.628c0,0-1.508,3.659-2.799,4.422c0,0-6.706-5.886-2.934-10.702
				C253.485,256.648,260.794,256.471,262.911,262.117z"/>
		</g>
		<g>
			<path fill="#F9CDBA" d="M255.441,267.745c-0.679-0.858-2.45-0.088-2.032,1.311c0.423,1.396,2.113,2.605,2.504,1.843
				C256.3,270.135,256.436,269.008,255.441,267.745z"/>
		</g>
	</g>
</g>
</svg>
