<?xml version="1.0" encoding="utf-8"?>
<!-- Generator: Adobe Illustrator 16.0.0, SVG Export Plug-In . SVG Version: 6.00 Build 0)  -->
<!DOCTYPE svg PUBLIC "-//W3C//DTD SVG 1.1//EN" "http://www.w3.org/Graphics/SVG/1.1/DTD/svg11.dtd">
<svg version="1.1" id="Capa_1" xmlns="http://www.w3.org/2000/svg" xmlns:xlink="http://www.w3.org/1999/xlink" x="0px" y="0px"
	 width="127.605px" height="132.758px" viewBox="0 0 127.605 132.758" enable-background="new 0 0 127.605 132.758"
	 xml:space="preserve">
<g>
	
		<linearGradient id="SVGID_1_" gradientUnits="userSpaceOnUse" x1="-65.1309" y1="66.2114" x2="54.8745" y2="66.2114" gradientTransform="matrix(1 0 0 1 69.4385 0)">
		<stop  offset="0" style="stop-color:#F89B1C"/>
		<stop  offset="0.9947" style="stop-color:#FBAC18"/>
	</linearGradient>
	<path fill="url(#SVGID_1_)" d="M124.313,66.216c0,33.133-26.865,59.998-59.999,59.998c-33.141,0-60.007-26.865-60.007-59.998
		c0-33.142,26.866-60.008,60.007-60.008C97.448,6.208,124.313,33.075,124.313,66.216z"/>
	<g>
		
			<linearGradient id="SVGID_2_" gradientUnits="userSpaceOnUse" x1="-55.6504" y1="66.2158" x2="45.4023" y2="66.2158" gradientTransform="matrix(1 0 0 1 69.4385 0)">
			<stop  offset="0" style="stop-color:#F89B1C"/>
			<stop  offset="0.9947" style="stop-color:#FBAC18"/>
		</linearGradient>
		<circle fill="url(#SVGID_2_)" cx="64.314" cy="66.216" r="50.526"/>
		<path fill="#FFFFFF" d="M64.314,117.726c-28.409,0-51.519-23.109-51.519-51.51c0-28.402,23.109-51.52,51.519-51.52
			c28.401,0,51.511,23.118,51.511,51.52C115.825,94.617,92.715,117.726,64.314,117.726z M64.314,16.682
			c-27.314,0-49.542,22.22-49.542,49.534S37,115.75,64.314,115.75c27.314,0,49.534-22.22,49.534-49.534S91.628,16.682,64.314,16.682
			z"/>
	</g>
	<path opacity="0.29" fill="#E0E05F" d="M124.313,66.216c0,33.133-93.14-60.008-59.999-60.008
		C97.448,6.208,124.313,33.075,124.313,66.216z"/>
	<g>
		<path fill="#FFFFFF" d="M61.086,105.16v-9.583c-5.504-0.095-11.197-1.803-14.52-4.173l2.283-6.355
			c3.409,2.276,8.346,4.08,13.661,4.08c6.732,0,11.291-3.89,11.291-9.299c0-5.22-3.7-8.449-10.724-11.292
			c-9.677-3.794-15.653-8.157-15.653-16.417c0-7.874,5.598-13.851,14.331-15.274v-9.576h5.874v9.198
			c5.693,0.188,9.582,1.708,12.338,3.323l-2.37,6.26c-1.992-1.142-5.882-3.221-11.96-3.221c-7.307,0-10.055,4.361-10.055,8.157
			c0,4.93,3.512,7.402,11.764,10.812c9.771,3.991,14.708,8.921,14.708,17.361c0,7.504-5.221,14.52-14.992,16.133v9.866H61.086z"/>
	</g>
</g>
</svg>
