<?xml version="1.0" encoding="utf-8"?>
<!-- Generator: Adobe Illustrator 16.0.0, SVG Export Plug-In . SVG Version: 6.00 Build 0)  -->
<!DOCTYPE svg PUBLIC "-//W3C//DTD SVG 1.1//EN" "http://www.w3.org/Graphics/SVG/1.1/DTD/svg11.dtd">
<svg version="1.1" id="Capa_1" xmlns="http://www.w3.org/2000/svg" xmlns:xlink="http://www.w3.org/1999/xlink" x="0px" y="0px"
	  width="578px" height="501.333px" viewBox="0 0 525.231 501.333" enable-background="new 0 0 525.231 501.333"
	 xml:space="preserve">
<g>
	<g>
		<g id="XMLID_541_">
			<path id="XMLID_548_" fill="#3C5185" d="M121.901,211.034l-1.545,1.293h-13.521l-1.466-1.351
				c-4.326-3.981-6.787-9.592-6.787-15.471v-5.882h30.856v5.28C129.438,201.132,126.678,207.038,121.901,211.034z"/>
			<path id="XMLID_547_" fill="#3C5185" d="M115.979,216.457h-5.043c-2.479,0-4.489-2.009-4.489-4.488l0,0h14.018l0,0
				C120.464,214.448,118.456,216.457,115.979,216.457z"/>
			<path id="XMLID_546_" fill="#2842A2" d="M124.861,183.355c-5.991-3.46-15.796-3.46-21.785,0c-5.991,3.458-5.991,9.119,0,12.577
				c5.989,3.459,15.794,3.459,21.785,0C130.855,192.474,130.855,186.813,124.861,183.355z"/>
			<linearGradient id="XMLID_4_" gradientUnits="userSpaceOnUse" x1="85.8042" y1="165.1406" x2="142.2241" y2="165.1406">
				<stop  offset="0.0212" style="stop-color:#FFC107"/>
				<stop  offset="0.1431" style="stop-color:#FFBC06"/>
				<stop  offset="1" style="stop-color:#FF9800"/>
			</linearGradient>
			<path id="XMLID_545_" opacity="0.83" fill="url(#XMLID_4_)" d="M114.016,131.733c-15.581,0-28.212,12.629-28.212,28.208
				c0,9.885,5.092,18.568,12.786,23.605v6.378l0,0c0.092,2.191,1.713,4.409,4.594,6.072c5.942,3.43,15.775,3.389,21.714-0.042
				c2.879-1.663,4.355-3.839,4.44-6.031h0.1v-6.378c7.693-5.039,12.786-13.721,12.786-23.605
				C142.224,144.362,129.595,131.733,114.016,131.733z"/>
			<path id="XMLID_544_" fill="#FFFFFF" d="M98.24,163.018c0-10.187,8.261-18.446,18.447-18.446c9.43,0,8.703-7.862-3.319-7.862
				s-21.765,9.742-21.765,21.766C91.603,166.101,98.24,169.481,98.24,163.018z"/>
			<path id="XMLID_543_" opacity="0.49" fill="#6E84B5" d="M124.898,198.418c-5.938,3.43-15.771,3.471-21.714,0.041
				c-2.881-1.662-4.502-3.88-4.594-6.07v2.116c0.092,2.189,1.713,4.405,4.594,6.067c5.942,3.43,15.775,3.392,21.714-0.039
				c2.879-1.663,4.355-3.839,4.44-6.029h0.1v-2.116h-0.1C129.253,194.579,127.777,196.756,124.898,198.418z"/>
			<path id="XMLID_542_" opacity="0.49" fill="#6E84B5" d="M124.816,204.555c-5.939,3.431-15.771,3.472-21.717,0.041
				c-1.692-0.977-2.935-2.146-3.703-3.39c0.383,1.367,0.907,2.688,1.562,3.95c0.611,0.554,1.321,1.077,2.142,1.555
				c5.945,3.431,15.777,3.389,21.717-0.042c0.673-0.388,1.261-0.805,1.776-1.242c0.788-1.362,1.42-2.811,1.883-4.316
				C127.757,202.372,126.546,203.559,124.816,204.555z"/>
			<linearGradient id="SVGID_1_" gradientUnits="userSpaceOnUse" x1="67.6069" y1="126.6812" x2="160.7266" y2="126.6812">
				<stop  offset="0.0212" style="stop-color:#FFC107"/>
				<stop  offset="0.1431" style="stop-color:#FFBC06"/>
				<stop  offset="1" style="stop-color:#FF9800"/>
			</linearGradient>
			<path fill="url(#SVGID_1_)" d="M113.914,129.393c-0.006,0-0.006,0-0.01,0c-1.267-0.007-2.296-1.041-2.287-2.309l0.082-17.623
				c0.009-1.267,1.036-2.288,2.301-2.288c0.005,0,0.009,0,0.013,0c1.267,0.005,2.292,1.041,2.287,2.31l-0.085,17.622
				C116.205,128.374,115.177,129.393,113.914,129.393z M132.75,132.733l8.899-15.209c0.641-1.094,0.272-2.503-0.825-3.146
				c-1.09-0.64-2.503-0.272-3.144,0.825l-8.899,15.211c-0.642,1.094-0.273,2.501,0.82,3.144c0.364,0.212,0.764,0.313,1.161,0.313
				C131.552,133.871,132.321,133.465,132.75,132.733z M144.241,145.888l15.321-8.706c1.107-0.627,1.49-2.031,0.863-3.135
				c-0.623-1.102-2.023-1.486-3.134-0.862l-15.323,8.706c-1.103,0.626-1.49,2.029-0.862,3.134c0.42,0.746,1.2,1.163,2.003,1.163
				C143.492,146.188,143.88,146.092,144.241,145.888z M87.005,144.843c0.649-1.088,0.294-2.5-0.793-3.153l-15.129-9.047
				c-1.086-0.648-2.498-0.297-3.15,0.793c-0.651,1.09-0.297,2.503,0.793,3.155l15.125,9.045c0.371,0.222,0.775,0.327,1.177,0.327
				C85.807,145.963,86.572,145.565,87.005,144.843z M98.582,133.454c1.111-0.616,1.508-2.016,0.894-3.127l-8.562-15.405
				c-0.611-1.106-2.017-1.51-3.124-0.893c-1.111,0.616-1.511,2.016-0.895,3.127l8.562,15.405c0.421,0.755,1.201,1.182,2.011,1.182
				C97.843,133.743,98.226,133.649,98.582,133.454z"/>
		</g>
	</g>
	<g>
		<g>
			<path id="XMLID_538_" fill="#CA6F61" d="M392.121,171.378L187.375,53.169c-2.769-1.596-6.224,0.4-6.224,3.593v154.302
				c0,3.222,1.718,6.2,4.509,7.81l204.747,118.211c2.764,1.595,6.225-0.401,6.225-3.594V179.188
				C396.631,175.968,394.909,172.99,392.121,171.378z"/>
			<path id="XMLID_537_" fill="#FF6F61" d="M389.473,173.142L184.727,54.932c-2.763-1.596-6.22,0.4-6.22,3.593v154.303
				c0,3.221,1.718,6.199,4.505,7.81l204.748,118.21c2.766,1.596,6.223-0.4,6.223-3.594V180.953
				C393.983,177.731,392.266,174.752,389.473,173.142z"/>
			<polygon id="XMLID_536_" fill="#FFEBE0" points="381.855,182.889 189.182,71.012 189.182,212.162 381.855,324.039 			"/>
			<linearGradient id="XMLID_5_" gradientUnits="userSpaceOnUse" x1="134.8862" y1="402.8989" x2="294.0369" y2="243.7482">
				<stop  offset="0" style="stop-color:#FF9966"/>
				<stop  offset="0.0337" style="stop-color:#FF9466"/>
				<stop  offset="0.2758" style="stop-color:#FF7864"/>
				<stop  offset="0.5185" style="stop-color:#FF6462"/>
				<stop  offset="0.7602" style="stop-color:#FF5861"/>
				<stop  offset="1" style="stop-color:#FF5461"/>
			</linearGradient>
			<path id="XMLID_535_" fill="url(#XMLID_5_)" d="M170.202,228.074L39.089,297.236c0,0-0.724,10.239,2.077,11.853L242.047,425.07
				c5.13,2.96,11.445,2.974,16.586,0.035l129.024-73.752c5.331-3.311,2.105-11.879,2.105-11.879L186.787,228.11
				C181.659,225.148,175.344,225.135,170.202,228.074z"/>
			<path id="XMLID_534_" fill="#F2F2F2" d="M170.202,220.134L41.183,293.889c-2.81,1.604-2.817,5.646-0.017,7.263l200.881,115.979
				c5.13,2.961,11.445,2.974,16.586,0.036l129.024-73.755c2.803-1.603,2.811-5.646,0.012-7.261l-200.883-115.98
				C181.659,217.209,175.344,217.196,170.202,220.134z"/>
			<path id="XMLID_533_" fill="#FFCCB2" d="M158.764,315.638l-34.006,19.44c-0.738,0.423-0.742,1.488-0.005,1.914l52.948,30.571
				c1.351,0.778,3.016,0.782,4.369,0.008l34.01-19.44c0.74-0.424,0.74-1.487,0.006-1.915l-52.952-30.568
				C161.784,314.867,160.119,314.863,158.764,315.638z"/>
			<path id="XMLID_532_" fill="#FFCCB2" d="M184.429,231.403l11.119,6.418c0.442,0.255,0.442,0.895-0.006,1.149l-5.52,3.174
				c-0.443,0.255-0.989,0.253-1.431-0.003l-11.113-6.416c-0.446-0.256-0.442-0.894,0-1.149l5.521-3.176
				C183.443,231.147,183.988,231.147,184.429,231.403z"/>
			<path id="XMLID_531_" fill="#FFCCB2" d="M200.719,241.107l11.112,6.418c0.442,0.256,0.442,0.894,0,1.147l-5.521,3.175
				c-0.443,0.254-0.986,0.254-1.429,0l-11.119-6.418c-0.44-0.256-0.44-0.894,0-1.151l5.527-3.174
				C199.73,240.85,200.277,240.85,200.719,241.107z"/>
			<path id="XMLID_530_" fill="#FFCCB2" d="M217.064,250.293l11.12,6.417c0.44,0.256,0.44,0.896-0.005,1.15l-5.522,3.174
				c-0.441,0.253-0.986,0.253-1.429-0.003l-11.119-6.418c-0.441-0.253-0.441-0.894,0.004-1.147l5.523-3.174
				C216.078,250.038,216.625,250.038,217.064,250.293z"/>
			<path id="XMLID_529_" fill="#FFCCB2" d="M233.908,259.781l11.114,6.417c0.442,0.257,0.442,0.895,0,1.149l-5.522,3.174
				c-0.442,0.253-0.987,0.253-1.429-0.003l-11.118-6.415c-0.442-0.256-0.442-0.894,0-1.15l5.521-3.174
				C232.92,259.524,233.465,259.524,233.908,259.781z"/>
			<path id="XMLID_528_" fill="#FFCCB2" d="M250.084,268.796l11.118,6.418c0.441,0.256,0.441,0.895-0.005,1.149l-5.521,3.176
				c-0.441,0.253-0.988,0.253-1.431-0.003l-11.116-6.418c-0.443-0.256-0.443-0.894,0.004-1.148l5.521-3.174
				C249.098,268.541,249.643,268.542,250.084,268.796z"/>
			<path id="XMLID_527_" fill="#FFCCB2" d="M265.817,278.502l11.114,6.415c0.441,0.256,0.441,0.895,0,1.149l-5.523,3.176
				c-0.441,0.254-0.986,0.254-1.433-0.002l-11.114-6.418c-0.441-0.254-0.441-0.895,0-1.148l5.521-3.175
				C264.826,278.244,265.37,278.244,265.817,278.502z"/>
			<path id="XMLID_526_" fill="#FFCCB2" d="M282.284,287.581l11.111,6.417c0.447,0.255,0.442,0.895,0,1.148l-5.52,3.174
				c-0.443,0.256-0.988,0.255-1.431,0l-11.117-6.418c-0.441-0.256-0.441-0.894,0.004-1.148l5.519-3.175
				C281.296,287.324,281.84,287.324,282.284,287.581z"/>
			<path id="XMLID_525_" fill="#FFCCB2" d="M298.505,297.241l11.114,6.418c0.441,0.254,0.441,0.895,0,1.149l-5.521,3.172
				c-0.443,0.257-0.988,0.255-1.43-0.001l-11.119-6.417c-0.441-0.257-0.441-0.896,0-1.149l5.522-3.174
				C297.518,296.985,298.063,296.985,298.505,297.241z"/>
			<path id="XMLID_524_" fill="#FFCCB2" d="M314.46,306.654l11.113,6.417c0.441,0.255,0.441,0.894,0,1.149l-5.521,3.174
				c-0.447,0.253-0.987,0.253-1.434-0.003l-11.114-6.417c-0.44-0.254-0.44-0.894,0-1.148l5.521-3.174
				C313.468,306.399,314.014,306.399,314.46,306.654z"/>
			<path id="XMLID_523_" fill="#FFCCB2" d="M331.279,316.344l11.113,6.416c0.44,0.256,0.44,0.894,0,1.149l-5.521,3.175
				c-0.446,0.254-0.992,0.254-1.436-0.002l-11.112-6.417c-0.442-0.254-0.442-0.894,0-1.149l5.521-3.175
				C330.287,316.088,330.831,316.088,331.279,316.344z"/>
			<path id="XMLID_522_" fill="#FFCCB2" d="M347.608,325.508l11.119,6.419c0.441,0.255,0.441,0.894-0.005,1.147l-5.518,3.174
				c-0.447,0.254-0.992,0.254-1.434-0.002l-11.117-6.418c-0.443-0.254-0.439-0.895,0.003-1.149l5.522-3.174
				C346.621,325.253,347.167,325.253,347.608,325.508z"/>
			<g id="XMLID_510_">
				<path id="XMLID_521_" fill="#FFCCB2" d="M161.817,243.497l7.532-4.409c0.98-0.572,2.187-0.577,3.169-0.01l7.355,4.247
					c1.029,0.594,1.045,2.07,0.037,2.691l-7.318,4.492c-0.981,0.604-2.218,0.622-3.218,0.046l-7.544-4.348
					C160.785,245.606,160.78,244.103,161.817,243.497z"/>
				<path id="XMLID_520_" fill="#FFCCB2" d="M178.681,253.2l7.532-4.408c0.975-0.573,2.185-0.578,3.168-0.011l7.355,4.247
					c1.028,0.592,1.049,2.07,0.037,2.691l-7.317,4.492c-0.983,0.604-2.219,0.622-3.218,0.045l-7.547-4.347
					C177.649,255.31,177.643,253.807,178.681,253.2z"/>
				<path id="XMLID_519_" fill="#FFCCB2" d="M195.052,262.387l7.532-4.411c0.976-0.572,2.186-0.576,3.168-0.008l7.356,4.246
					c1.028,0.595,1.049,2.07,0.037,2.692l-7.319,4.49c-0.983,0.604-2.217,0.621-3.218,0.045l-7.544-4.345
					C194.019,264.496,194.016,262.994,195.052,262.387z"/>
				<path id="XMLID_518_" fill="#FFCCB2" d="M212.468,271.873l7.533-4.409c0.975-0.574,2.186-0.576,3.168-0.009l7.356,4.245
					c1.027,0.595,1.047,2.071,0.037,2.692l-7.319,4.492c-0.982,0.603-2.219,0.622-3.218,0.043l-7.545-4.345
					C211.436,273.984,211.432,272.481,212.468,271.873z"/>
				<path id="XMLID_517_" fill="#FFCCB2" d="M227.816,280.89l7.529-4.41c0.978-0.571,2.186-0.575,3.167-0.01l7.355,4.248
					c1.029,0.592,1.05,2.07,0.037,2.69l-7.313,4.491c-0.987,0.605-2.224,0.621-3.223,0.045l-7.546-4.345
					C226.784,283,226.775,281.499,227.816,280.89z"/>
				<path id="XMLID_516_" fill="#FFCCB2" d="M243.403,290.544l7.533-4.412c0.979-0.573,2.186-0.577,3.167-0.008l7.355,4.245
					c1.029,0.594,1.049,2.072,0.036,2.693l-7.315,4.489c-0.984,0.604-2.219,0.621-3.219,0.045l-7.545-4.345
					C242.371,292.651,242.366,291.151,243.403,290.544z"/>
				<path id="XMLID_515_" fill="#FFCCB2" d="M260.063,299.673l7.533-4.409c0.975-0.573,2.185-0.576,3.167-0.011l7.355,4.248
					c1.03,0.593,1.047,2.069,0.033,2.691l-7.314,4.491c-0.983,0.603-2.217,0.622-3.221,0.045l-7.542-4.347
					C259.03,301.784,259.026,300.282,260.063,299.673z"/>
				<path id="XMLID_514_" fill="#FFCCB2" d="M276.37,308.916l7.529-4.408c0.978-0.571,2.188-0.577,3.167-0.011l7.355,4.248
					c1.027,0.592,1.048,2.07,0.037,2.692l-7.313,4.49c-0.987,0.604-2.225,0.622-3.224,0.046l-7.545-4.347
					C275.336,311.024,275.332,309.525,276.37,308.916z"/>
				<path id="XMLID_513_" fill="#FFCCB2" d="M292.398,318.748l7.532-4.411c0.975-0.572,2.186-0.575,3.164-0.008l7.359,4.246
					c1.028,0.594,1.046,2.07,0.032,2.693l-7.313,4.49c-0.983,0.605-2.219,0.621-3.222,0.044l-7.546-4.345
					C291.366,320.856,291.362,319.354,292.398,318.748z"/>
				<path id="XMLID_512_" fill="#FFCCB2" d="M309.864,329.034l7.528-4.411c0.979-0.572,2.188-0.577,3.169-0.01l7.355,4.247
					c1.028,0.594,1.047,2.072,0.038,2.693l-7.316,4.489c-0.986,0.605-2.222,0.621-3.222,0.046l-7.544-4.346
					C308.831,331.141,308.823,329.641,309.864,329.034z"/>
				<path id="XMLID_511_" fill="#FFCCB2" d="M325.652,337.601l7.536-4.411c0.977-0.571,2.183-0.575,3.165-0.009l7.356,4.246
					c1.027,0.596,1.049,2.072,0.037,2.693l-7.315,4.49c-0.985,0.604-2.222,0.621-3.222,0.045l-7.545-4.345
					C324.624,339.709,324.616,338.208,325.652,337.601z"/>
			</g>
			<g id="XMLID_498_">
				<path id="XMLID_509_" fill="#FFCCB2" d="M145.038,252.622l7.532-4.411c0.979-0.572,2.186-0.576,3.169-0.008l7.354,4.246
					c1.028,0.595,1.048,2.071,0.037,2.692l-7.318,4.49c-0.982,0.605-2.218,0.622-3.218,0.046l-7.545-4.345
					C144.004,254.729,144,253.229,145.038,252.622z"/>
				<path id="XMLID_508_" fill="#FFCCB2" d="M161.901,262.325l7.532-4.408c0.979-0.575,2.186-0.577,3.169-0.011l7.355,4.246
					c1.027,0.596,1.048,2.071,0.036,2.693l-7.317,4.489c-0.983,0.604-2.219,0.622-3.218,0.045l-7.546-4.344
					C160.872,264.433,160.863,262.932,161.901,262.325z"/>
				<path id="XMLID_507_" fill="#FFCCB2" d="M178.271,271.512l7.534-4.411c0.979-0.572,2.185-0.575,3.168-0.01l7.355,4.248
					c1.027,0.592,1.048,2.071,0.038,2.692l-7.32,4.489c-0.981,0.605-2.219,0.621-3.217,0.047l-7.546-4.347
					C177.239,273.621,177.235,272.119,178.271,271.512z"/>
				<path id="XMLID_506_" fill="#FFCCB2" d="M195.688,280.999l7.534-4.411c0.977-0.571,2.184-0.574,3.168-0.008l7.354,4.246
					c1.029,0.595,1.049,2.072,0.037,2.693l-7.317,4.49c-0.983,0.604-2.22,0.622-3.219,0.044l-7.545-4.344
					C194.656,283.107,194.651,281.606,195.688,280.999z"/>
				<path id="XMLID_505_" fill="#FFCCB2" d="M211.035,290.015l7.529-4.41c0.979-0.574,2.185-0.576,3.168-0.01l7.355,4.248
					c1.028,0.593,1.05,2.068,0.036,2.691l-7.313,4.491c-0.988,0.604-2.222,0.622-3.222,0.046l-7.546-4.346
					C210.002,292.124,209.995,290.622,211.035,290.015z"/>
				<path id="XMLID_504_" fill="#FFCCB2" d="M226.623,299.667l7.532-4.409c0.979-0.571,2.185-0.575,3.168-0.009l7.355,4.246
					c1.028,0.594,1.05,2.072,0.037,2.693l-7.313,4.49c-0.987,0.604-2.223,0.621-3.223,0.044l-7.545-4.344
					C225.589,301.777,225.585,300.276,226.623,299.667z"/>
				<path id="XMLID_503_" fill="#FFCCB2" d="M243.283,308.798l7.532-4.41c0.977-0.573,2.186-0.574,3.169-0.009l7.355,4.245
					c1.028,0.597,1.044,2.072,0.033,2.694l-7.314,4.489c-0.983,0.604-2.218,0.622-3.217,0.045l-7.546-4.344
					C242.25,310.907,242.247,309.405,243.283,308.798z"/>
				<path id="XMLID_502_" fill="#FFCCB2" d="M259.588,318.041l7.529-4.408c0.979-0.574,2.189-0.577,3.167-0.01l7.355,4.246
					c1.028,0.593,1.05,2.07,0.038,2.691l-7.314,4.49c-0.986,0.605-2.222,0.621-3.222,0.045l-7.546-4.345
					C258.556,320.149,258.552,318.649,259.588,318.041z"/>
				<path id="XMLID_501_" fill="#FFCCB2" d="M275.616,327.872l7.535-4.41c0.974-0.571,2.185-0.575,3.168-0.009l7.354,4.248
					c1.027,0.592,1.046,2.07,0.032,2.69l-7.313,4.491c-0.983,0.605-2.218,0.621-3.221,0.046l-7.547-4.345
					C274.584,329.981,274.58,328.48,275.616,327.872z"/>
				<path id="XMLID_500_" fill="#FFCCB2" d="M293.083,338.157l7.527-4.408c0.98-0.574,2.189-0.577,3.169-0.011l7.354,4.247
					c1.029,0.593,1.05,2.072,0.038,2.691l-7.313,4.491c-0.983,0.604-2.224,0.622-3.223,0.045l-7.545-4.344
					C292.05,340.267,292.046,338.766,293.083,338.157z"/>
				<path id="XMLID_499_" fill="#FFCCB2" d="M308.877,346.725l7.529-4.409c0.978-0.572,2.184-0.577,3.167-0.011l7.354,4.248
					c1.03,0.592,1.05,2.071,0.038,2.691l-7.313,4.491c-0.986,0.605-2.223,0.622-3.224,0.046l-7.543-4.345
					C307.844,348.835,307.834,347.333,308.877,346.725z"/>
			</g>
			<g id="XMLID_486_">
				<path id="XMLID_497_" fill="#FFCCB2" d="M128.256,261.747l7.534-4.411c0.979-0.572,2.185-0.576,3.167-0.01l7.356,4.247
					c1.027,0.595,1.05,2.072,0.037,2.693l-7.314,4.489c-0.987,0.604-2.222,0.621-3.222,0.045l-7.546-4.344
					C127.228,263.855,127.218,262.354,128.256,261.747z"/>
				<path id="XMLID_496_" fill="#FFCCB2" d="M145.12,271.451l7.534-4.412c0.978-0.571,2.184-0.576,3.166-0.01l7.355,4.248
					c1.029,0.595,1.05,2.072,0.037,2.69l-7.313,4.493c-0.987,0.603-2.223,0.62-3.221,0.045l-7.546-4.345
					C144.087,273.559,144.083,272.057,145.12,271.451z"/>
				<path id="XMLID_495_" fill="#FFCCB2" d="M161.491,280.635l7.534-4.409c0.979-0.571,2.186-0.575,3.167-0.01l7.354,4.247
					c1.029,0.593,1.051,2.069,0.038,2.691l-7.318,4.492c-0.982,0.603-2.217,0.621-3.218,0.044l-7.545-4.346
					C160.458,282.746,160.454,281.242,161.491,280.635z"/>
				<path id="XMLID_494_" fill="#FFCCB2" d="M178.912,290.125l7.529-4.411c0.978-0.572,2.185-0.576,3.167-0.01l7.355,4.248
					c1.029,0.595,1.051,2.072,0.038,2.692l-7.32,4.49c-0.981,0.605-2.215,0.622-3.216,0.045l-7.546-4.345
					C177.878,292.232,177.87,290.731,178.912,290.125z"/>
				<path id="XMLID_493_" fill="#FFCCB2" d="M194.254,299.139l7.529-4.41c0.98-0.571,2.188-0.574,3.168-0.007l7.355,4.246
					c1.027,0.594,1.048,2.07,0.038,2.692l-7.314,4.492c-0.984,0.603-2.224,0.618-3.223,0.042l-7.546-4.345
					C193.221,301.25,193.218,299.747,194.254,299.139z"/>
				<path id="XMLID_492_" fill="#FFCCB2" d="M209.846,308.792l7.527-4.409c0.98-0.572,2.189-0.576,3.169-0.01l7.355,4.247
					c1.028,0.593,1.05,2.069,0.038,2.691l-7.315,4.492c-0.987,0.602-2.223,0.62-3.22,0.045l-7.547-4.347
					C208.813,310.903,208.805,309.401,209.846,308.792z"/>
				<path id="XMLID_491_" fill="#FFCCB2" d="M226.502,317.924l7.534-4.412c0.975-0.572,2.183-0.576,3.167-0.01l7.356,4.248
					c1.027,0.594,1.047,2.071,0.036,2.692l-7.318,4.49c-0.983,0.604-2.22,0.62-3.218,0.045l-7.546-4.345
					C225.469,320.032,225.466,318.532,226.502,317.924z"/>
				<path id="XMLID_490_" fill="#FFCCB2" d="M242.807,327.167l7.529-4.411c0.979-0.571,2.189-0.577,3.167-0.011l7.357,4.248
					c1.028,0.595,1.049,2.072,0.036,2.693l-7.314,4.489c-0.982,0.605-2.222,0.621-3.22,0.047l-7.547-4.347
					C241.775,329.275,241.771,327.774,242.807,327.167z"/>
				<path id="XMLID_489_" fill="#FFCCB2" d="M258.836,336.996l7.532-4.408c0.977-0.574,2.186-0.576,3.169-0.01l7.354,4.249
					c1.029,0.592,1.045,2.067,0.034,2.689l-7.314,4.491c-0.983,0.604-2.217,0.62-3.216,0.045l-7.546-4.346
					C257.804,339.106,257.8,337.606,258.836,336.996z"/>
				<path id="XMLID_488_" fill="#FFCCB2" d="M276.303,347.282l7.529-4.409c0.978-0.572,2.188-0.577,3.167-0.01l7.355,4.248
					c1.029,0.592,1.05,2.071,0.037,2.69l-7.313,4.492c-0.984,0.602-2.224,0.62-3.224,0.045l-7.545-4.347
					C275.271,349.393,275.265,347.891,276.303,347.282z"/>
				<path id="XMLID_487_" fill="#FFCCB2" d="M292.095,355.85l7.528-4.409c0.98-0.571,2.191-0.576,3.168-0.01l7.356,4.248
					c1.029,0.592,1.05,2.069,0.037,2.69l-7.313,4.493c-0.987,0.603-2.222,0.622-3.221,0.045l-7.547-4.347
					C291.064,357.96,291.055,356.459,292.095,355.85z"/>
			</g>
			<g id="XMLID_476_">
				<path id="XMLID_485_" fill="#FFCCB2" d="M111.48,270.87l7.529-4.408c0.979-0.572,2.189-0.577,3.167-0.011l7.355,4.249
					c1.03,0.592,1.051,2.069,0.038,2.69l-7.314,4.491c-0.987,0.603-2.222,0.622-3.221,0.046l-7.546-4.346
					C110.449,272.98,110.439,271.479,111.48,270.87z"/>
				<path id="XMLID_484_" fill="#FFCCB2" d="M128.343,280.574l7.528-4.408c0.979-0.573,2.186-0.577,3.169-0.012l7.355,4.247
					c1.028,0.594,1.05,2.072,0.037,2.691l-7.314,4.492c-0.987,0.603-2.222,0.622-3.221,0.045l-7.545-4.345
					C127.31,282.684,127.303,281.183,128.343,280.574z"/>
				<path id="XMLID_483_" fill="#FFCCB2" d="M144.715,289.76l7.528-4.411c0.979-0.572,2.186-0.575,3.167-0.007l7.356,4.246
					c1.029,0.594,1.05,2.069,0.037,2.691l-7.317,4.492c-0.983,0.603-2.218,0.619-3.218,0.043l-7.546-4.346
					C143.683,291.87,143.674,290.369,144.715,289.76z"/>
				<path id="XMLID_482_" fill="#FFCCB2" d="M162.127,299.248l7.533-4.409c0.979-0.572,2.188-0.576,3.168-0.01l7.355,4.248
					c1.028,0.593,1.048,2.072,0.036,2.691l-7.313,4.492c-0.987,0.602-2.223,0.622-3.222,0.044l-7.546-4.347
					C161.099,301.358,161.091,299.856,162.127,299.248z"/>
				<path id="XMLID_481_" fill="#FFCCB2" d="M178.912,309.264l7.529-4.41c0.978-0.572,2.185-0.577,3.167-0.01l38.29,22.116
					c1.028,0.595,1.05,2.072,0.038,2.693l-7.315,4.489c-0.987,0.605-2.223,0.622-3.22,0.046l-38.481-22.213
					C177.878,311.374,177.87,309.872,178.912,309.264z"/>
				<path id="XMLID_480_" fill="#FFCCB2" d="M226.027,336.29l7.532-4.409c0.977-0.572,2.186-0.575,3.165-0.009l7.355,4.247
					c1.028,0.592,1.049,2.071,0.037,2.69l-7.314,4.491c-0.983,0.603-2.217,0.622-3.222,0.046l-7.546-4.348
					C224.995,338.4,224.991,336.9,226.027,336.29z"/>
				<path id="XMLID_479_" fill="#FFCCB2" d="M242.055,346.121l7.533-4.411c0.979-0.572,2.186-0.574,3.169-0.007l7.356,4.246
					c1.027,0.594,1.048,2.07,0.036,2.691l-7.318,4.492c-0.983,0.603-2.219,0.62-3.218,0.043l-7.546-4.344
					C241.023,348.23,241.019,346.729,242.055,346.121z"/>
				<path id="XMLID_478_" fill="#FFCCB2" d="M259.522,356.408l7.533-4.41c0.974-0.574,2.186-0.575,3.163-0.01l7.356,4.247
					c1.027,0.594,1.049,2.07,0.037,2.692l-7.314,4.492c-0.983,0.603-2.217,0.62-3.222,0.043l-7.546-4.345
					C258.49,358.515,258.486,357.014,259.522,356.408z"/>
				<path id="XMLID_477_" fill="#FFCCB2" d="M275.316,364.976l7.528-4.41c0.979-0.574,2.188-0.576,3.168-0.01l7.355,4.247
					c1.027,0.593,1.049,2.071,0.037,2.692l-7.313,4.489c-0.984,0.605-2.224,0.623-3.221,0.046l-7.548-4.346
					C274.282,367.086,274.28,365.582,275.316,364.976z"/>
			</g>
		</g>
	</g>
	<g>
		<linearGradient id="XMLID_6_" gradientUnits="userSpaceOnUse" x1="203.9351" y1="160.9946" x2="362.5952" y2="160.9946">
			<stop  offset="0" style="stop-color:#FFFFFF"/>
			<stop  offset="0.3956" style="stop-color:#D5E7F8"/>
			<stop  offset="0.7864" style="stop-color:#B2D3F1"/>
			<stop  offset="0.9962" style="stop-color:#A5CBEF"/>
		</linearGradient>
		<path id="XMLID_475_" fill="url(#XMLID_6_)" d="M362.595,103.146c0-2.387-1.689-5.319-3.754-6.518L209.065,9.708
			c-0.858-0.499-1.912-0.526-2.796-0.069l-2.334,1.202l1.066,203.883c0,2.388,1.686,5.321,3.75,6.518l151.52,90.087l2.324,1.348
			V103.146z"/>
		<path id="XMLID_474_" fill="#FFFFFF" d="M360.271,104.85c0-2.386-1.69-5.319-3.75-6.517L206.426,11.178
			c-2.061-1.197-3.751-0.225-3.751,2.16v206.479l157.596,91.51V104.85z"/>
		<linearGradient id="XMLID_7_" gradientUnits="userSpaceOnUse" x1="202.6753" y1="62.6553" x2="360.271" y2="62.6553">
			<stop  offset="0.5122" style="stop-color:#0FDBA1"/>
			<stop  offset="0.5435" style="stop-color:#1DDDA7"/>
			<stop  offset="0.6348" style="stop-color:#41E2B5"/>
			<stop  offset="0.7267" style="stop-color:#5EE7C0"/>
			<stop  offset="0.8183" style="stop-color:#72EAC8"/>
			<stop  offset="0.9095" style="stop-color:#7EEBCC"/>
			<stop  offset="1" style="stop-color:#82ECCE"/>
		</linearGradient>
		<path id="XMLID_473_" fill="url(#XMLID_7_)" d="M356.521,98.333L206.426,11.178c-2.061-1.197-3.751-0.225-3.751,2.16v9.794
			l157.596,91.512v-9.795C360.271,102.463,358.581,99.531,356.521,98.333z"/>
		<path id="XMLID_472_" fill="#FFFFFF" d="M211.007,19.411c-0.67-0.389-1.219-0.069-1.219,0.707c0,0.779,0.549,1.732,1.222,2.121
			c0.674,0.388,1.223,0.071,1.223-0.708C212.229,20.751,211.68,19.798,211.007,19.411z"/>
		<path id="XMLID_471_" fill="#FFFFFF" d="M216.337,22.569c-0.669-0.389-1.223-0.068-1.223,0.709c0,0.778,0.554,1.731,1.227,2.121
			c0.674,0.388,1.223,0.069,1.22-0.709C217.561,23.911,217.011,22.958,216.337,22.569z"/>
		<path id="XMLID_470_" fill="#FFFFFF" d="M221.67,25.728c-0.674-0.386-1.223-0.068-1.223,0.711c0,0.776,0.555,1.731,1.227,2.12
			c0.672,0.389,1.223,0.068,1.22-0.71C222.894,27.071,222.344,26.116,221.67,25.728z"/>
		<polygon id="XMLID_469_" fill="#E3EDF7" points="215.063,46.92 215.063,106.564 346.632,182.275 346.632,123.019 		"/>
		<polygon id="XMLID_468_" fill="#FFFFFF" points="260.29,81.439 260.29,86.01 340.695,132.616 340.695,128.072 		"/>
		<g id="XMLID_464_">
			<polygon id="XMLID_467_" fill="#EDF3FA" points="214.875,182.373 214.875,186.948 346.632,263.496 346.632,258.953 			"/>
			<polygon id="XMLID_466_" fill="#EDF3FA" points="214.875,194.765 214.875,199.338 346.632,275.886 346.632,271.343 			"/>
			<polygon id="XMLID_465_" fill="#EDF3FA" points="214.875,207.776 214.875,212.349 346.632,288.897 346.632,284.353 			"/>
		</g>
		<polygon id="XMLID_463_" fill="#FFFFFF" points="260.29,93.83 260.29,98.404 340.695,145.007 340.695,140.464 		"/>
		<polygon id="XMLID_462_" fill="#FFFFFF" points="260.29,106.221 260.29,110.793 340.695,157.396 340.695,152.853 		"/>
		<polygon id="XMLID_461_" fill="#FFFFFF" points="260.29,118.611 260.29,123.183 297.948,145.007 297.948,140.464 		"/>
		<polygon id="XMLID_460_" fill="#EDF3FA" points="215.063,114.599 215.063,162.163 252.885,184.453 252.885,137.197 		"/>
		<polygon id="XMLID_459_" fill="#EDF3FA" points="308.811,169.737 308.811,217.301 346.632,239.59 346.632,192.335 		"/>
		<path id="XMLID_458_" fill="#FFFFFF" d="M235.741,68.181c-9.585-5.531-17.424-0.98-17.424,10.117
			c0,11.099,7.863,24.717,17.474,30.266c9.61,5.547,17.449,0.995,17.422-10.117C253.186,87.333,245.324,73.714,235.741,68.181z"/>
		<polygon id="XMLID_457_" fill="#FFFFFF" points="234.775,149.708 252.885,137.905 252.885,137.197 252.27,136.827 
			234.184,148.614 216.119,115.229 215.063,114.599 215.063,115.882 233.139,149.292 215.063,161.073 215.063,162.163 
			215.375,162.346 233.734,150.387 251.825,183.828 252.885,184.453 252.885,183.183 		"/>
		<polygon id="XMLID_456_" fill="#FFFFFF" points="346.632,192.335 346.48,192.242 328.059,204.245 309.669,170.251 
			308.811,169.737 308.811,171.266 327.019,204.923 308.811,216.79 308.811,217.301 309.59,217.762 327.613,206.015 
			345.378,238.851 346.632,239.59 346.632,238.569 328.656,205.338 346.632,193.624 		"/>
		<polygon id="XMLID_455_" opacity="0.15" fill="#3C5185" points="263.797,144.491 263.797,192.056 301.62,214.347 301.62,167.088 
					"/>
		<polygon id="XMLID_454_" opacity="0.15" fill="#3C5185" points="254.158,147.591 254.158,195.153 291.98,217.445 291.98,170.186 
					"/>
		<g id="XMLID_451_">
			<linearGradient id="XMLID_8_" gradientUnits="userSpaceOnUse" x1="240.7134" y1="192.1187" x2="281.0151" y2="192.1187">
				<stop  offset="0" style="stop-color:#FFFFFF"/>
				<stop  offset="0.363" style="stop-color:#E8F2FB"/>
				<stop  offset="1" style="stop-color:#C2DCF4"/>
			</linearGradient>
			<polygon id="XMLID_453_" fill="url(#XMLID_8_)" points="243.192,156.882 240.713,157.501 243.192,204.446 278.534,227.355 
				281.015,226.736 281.015,179.481 			"/>
			<polygon id="XMLID_452_" fill="#E3EDF7" points="240.713,157.501 240.713,205.065 278.534,227.355 278.534,180.098 			"/>
		</g>
		<path id="XMLID_450_" fill="#E3EDF7" d="M238.809,87.802c0.66-0.524,1.063-1.459,1.059-2.731
			c-0.009-2.858-2.028-6.359-4.494-7.783c-2.465-1.421-4.48-0.251-4.48,2.602c0,1.944,0.938,4.187,2.316,5.872
			c-2.444,1.149-4.135,3.631-4.135,6.504v1.788l13.378,7.823v-3.631C242.453,94.415,241.142,90.745,238.809,87.802z"/>
	</g>
	<g id="XMLID_432_">
		<path id="XMLID_447_" fill="#FFC107" d="M249.625,464.786c-4.394-2.503-4.406-6.618-0.027-9.146l226.905-131.003
			c4.377-2.527,11.514-2.477,15.854,0.113l21.374,12.75c4.34,2.591,4.312,6.78-0.064,9.307L287.644,477.3
			c-4.383,2.529-11.562,2.551-15.949,0.047L249.625,464.786z"/>
		
			<linearGradient id="XMLID_11_" gradientUnits="userSpaceOnUse" x1="408.5703" y1="398.6938" x2="679.2153" y2="398.6938" gradientTransform="matrix(1 0 0 1 -162.248 0)">
			<stop  offset="0" style="stop-color:#FF9800"/>
			<stop  offset="1" style="stop-color:#FFC107"/>
		</linearGradient>
		<path id="XMLID_446_" fill="url(#XMLID_11_)" d="M249.625,462.489c-4.394-2.503-4.406-6.619-0.027-9.147l226.905-131.002
			c4.377-2.528,11.514-2.476,15.854,0.112l21.374,12.752c4.34,2.588,4.312,6.779-0.064,9.307L287.644,475.001
			c-4.383,2.529-11.562,2.551-15.949,0.048L249.625,462.489z"/>
		<polygon id="XMLID_445_" fill="#3C5185" points="257.598,448.992 272.106,457.416 275.344,455.546 260.963,447.072 		"/>
		<polygon id="XMLID_444_" fill="#3C5185" points="275.261,438.767 285.104,444.448 288.346,442.579 278.628,436.846 		"/>
		<polygon id="XMLID_443_" fill="#3C5185" points="292.926,428.539 302.769,434.221 306.01,432.353 296.292,426.62 		"/>
		<polygon id="XMLID_442_" fill="#3C5185" points="310.589,418.313 320.431,423.997 323.674,422.125 313.957,416.391 		"/>
		<polygon id="XMLID_441_" fill="#3C5185" points="328.254,408.087 342.763,416.51 346,414.639 331.621,406.167 		"/>
		<polygon id="XMLID_440_" fill="#3C5185" points="345.922,397.861 355.764,403.542 359.003,401.671 349.286,395.941 		"/>
		<polygon id="XMLID_439_" fill="#3C5185" points="363.583,387.632 373.428,393.316 376.667,391.445 366.947,385.712 		"/>
		<polygon id="XMLID_438_" fill="#3C5185" points="381.251,377.406 391.093,383.088 394.332,381.218 384.614,375.487 		"/>
		<polygon id="XMLID_437_" fill="#3C5185" points="398.915,367.178 413.42,375.602 416.659,373.733 402.276,365.258 		"/>
		<polygon id="XMLID_436_" fill="#3C5185" points="416.58,356.953 426.421,362.636 429.66,360.764 419.942,355.032 		"/>
		<polygon id="XMLID_435_" fill="#3C5185" points="434.244,346.725 444.086,352.407 447.324,350.539 437.605,344.806 		"/>
		<polygon id="XMLID_434_" fill="#3C5185" points="451.907,336.499 461.75,342.182 464.989,340.311 455.27,334.579 		"/>
		<polygon id="XMLID_433_" fill="#3C5185" points="469.572,326.272 484.077,334.695 487.316,332.825 472.934,324.353 		"/>
	</g>
	<g id="XMLID_409_">
		<g id="XMLID_430_">
			<path id="XMLID_431_" fill="#F2B1B5" d="M206.691,211.243c-1.471,0-2.851-0.9-3.395-2.356c-0.695-1.873,0.261-3.956,2.131-4.653
				l17.944-6.667c0.801-0.3,1.494-0.861,1.957-1.583l10.023-15.725c1.076-1.685,3.31-2.181,4.994-1.106
				c1.686,1.074,1.322,2.262,0.247,3.946l-10.022,15.727c-1.306,2.042-3.271,3.63-5.54,4.473l-17.081,7.717
				C207.533,211.169,207.107,211.243,206.691,211.243z"/>
		</g>
		<path id="XMLID_429_" fill="#F2B1B5" d="M240.713,174.614c-0.966-0.557-5.748,2.741-5.192,5.196
			c0.559,2.456,3.004,3.994,5.458,3.434c2.453-0.557,2.076-1.43,0.176-3.08C240.186,179.326,240.713,174.614,240.713,174.614z"/>
		<path id="XMLID_428_" fill="#F2B1B5" d="M238.914,181.781l3.634-2.527c0.615-0.428,1.462-0.277,1.892,0.339l0,0
			c0.43,0.613,0.276,1.457-0.339,1.884l-3.644,2.532c-0.61,0.428-1.457,0.277-1.886-0.339l0,0
			C238.145,183.055,238.294,182.208,238.914,181.781z"/>
		<path id="XMLID_427_" fill="#3C5185" d="M204.402,338.667l15.235-7.873c1.492-0.772,1.467-2.928-0.037-3.669l-0.239-0.115
			c-2.651-1.304-5.702-1.493-8.491-0.53l-11.365,2.783c-1.322,0.247-2.276,1.418-2.264,2.774l0.024,2.534
			c0.009,1.038,0.563,1.994,1.459,2.511l2.614,1.513C202.279,339.143,203.436,339.167,204.402,338.667z"/>
		<g id="XMLID_425_">
			<path id="XMLID_426_" fill="#F2B1B5" d="M202.277,333.897c-3.198,0-3.036-1.683-3.231-3.406l0.52-36.368l-1.887-37.975
				c0-3.196,2.59-5.788,5.786-5.788c3.197,0,6.249,3.34,6.249,6.537l-3.502,71.958C206.219,331.342,204.402,333.897,202.277,333.897
				z"/>
		</g>
		<path id="XMLID_424_" fill="#3C5185" d="M218.685,349.379l15.235-7.871c1.49-0.772,1.466-2.93-0.037-3.67l-0.239-0.117
			c-2.648-1.301-5.704-1.493-8.492-0.531l-11.362,2.786c-1.326,0.248-2.279,1.416-2.268,2.773l0.025,2.534
			c0.008,1.039,0.566,1.995,1.458,2.511l2.615,1.514C216.567,349.852,217.718,349.88,218.685,349.379z"/>
		<g id="XMLID_422_">
			<path id="XMLID_423_" fill="#F2B1B5" d="M216.558,344.608c-3.197,0-3.037-1.683-3.23-3.405l0.521-36.367l-1.888-37.976
				c0-3.194,2.589-5.787,5.785-5.787c3.197,0,6.255,3.339,6.255,6.536l-3.508,71.958
				C220.505,342.053,218.685,344.608,216.558,344.608z"/>
		</g>
		<linearGradient id="XMLID_15_" gradientUnits="userSpaceOnUse" x1="193.3618" y1="248.8882" x2="228.2339" y2="248.8882">
			<stop  offset="0" style="stop-color:#0FDBA1"/>
			<stop  offset="0.0642" style="stop-color:#1DDDA7"/>
			<stop  offset="0.2513" style="stop-color:#41E2B5"/>
			<stop  offset="0.4397" style="stop-color:#5EE7C0"/>
			<stop  offset="0.6276" style="stop-color:#72EAC8"/>
			<stop  offset="0.8146" style="stop-color:#7EEBCC"/>
			<stop  offset="1" style="stop-color:#82ECCE"/>
		</linearGradient>
		<path id="XMLID_421_" fill="url(#XMLID_15_)" d="M222.542,213.704l1.446,4.16c1.135,3.258,1.254,6.781,0.347,10.107l-2.05,4.921
			l-0.561,15.17l6.51,50.362c-6.996,4.04-30.831,1.85-34.872-5.148l4.759-46.451l-3.569-41.863c0-5.862,6.344-9.525,11.42-6.596
			l11.572,6.681C220.633,206.834,222.542,210.134,222.542,213.704z"/>
		<path id="XMLID_420_" fill="#FF6F61" d="M222.451,253.665l-0.727-5.603l0.012-0.281c-7.326,0.843-17.686-0.35-23.813-3.292
			l0.197,2.336l-0.363,3.574C204.076,253.476,215.038,254.67,222.451,253.665z"/>
		<path id="XMLID_419_" fill="#F2B1B5" d="M207.509,201.312L207.509,201.312c-3.548,0-6.425-2.877-6.425-6.425v-15.363h18.707v9.506
			C219.792,195.811,214.292,201.312,207.509,201.312z"/>
		<path id="XMLID_418_" fill="#F2B1B5" d="M207.336,207.492L207.336,207.492c-2.162,0-3.912-1.751-3.912-3.911V192.67
			c0-0.53,0.429-0.959,0.958-0.959h5.906c0.528,0,0.959,0.429,0.959,0.959v10.911C211.248,205.741,209.495,207.492,207.336,207.492z
			"/>
		<g id="XMLID_416_">
			<path id="XMLID_417_" fill="#F2B1B5" d="M223.789,234.767l-12.166-20.913c-1.011-1.725-0.423-3.939,1.304-4.946
				c1.727-1.005,3.941-0.418,4.948,1.307l9.169,17.669l18.11,6.187c1.954-0.398,3.864,0.875,4.259,2.835
				c0.392,1.958-1.088,2.528-3.049,2.92L223.789,234.767z"/>
		</g>
		<g id="XMLID_414_">
			<linearGradient id="XMLID_16_" gradientUnits="userSpaceOnUse" x1="207.7075" y1="206.7349" x2="226.4445" y2="225.965">
				<stop  offset="0" style="stop-color:#0FDBA1"/>
				<stop  offset="0.0642" style="stop-color:#1DDDA7"/>
				<stop  offset="0.2513" style="stop-color:#41E2B5"/>
				<stop  offset="0.4397" style="stop-color:#5EE7C0"/>
				<stop  offset="0.6276" style="stop-color:#72EAC8"/>
				<stop  offset="0.8146" style="stop-color:#7EEBCC"/>
				<stop  offset="1" style="stop-color:#82ECCE"/>
			</linearGradient>
			<path id="XMLID_415_" fill="url(#XMLID_16_)" d="M215.595,222.186l-4.654-8.001c-0.954-1.64-0.806-3.794,0.558-5.115
				c2.015-1.957,5.146-1.416,6.46,0.84l4.43,8.54c1.042,2.004,0.153,4.473-1.925,5.356l0,0
				C218.664,224.571,216.577,223.875,215.595,222.186z"/>
		</g>
		<path id="XMLID_413_" fill="#F2B1B5" d="M252.15,236.489c0.418,2.095-2.362,4.196-4.497,4.196c-2.141,0-3.871-1.732-3.871-3.869
			c0-2.136,0.565-4.195,2.703-4.195S251.848,234.961,252.15,236.489z"/>
		<circle id="XMLID_412_" fill="#F2B1B5" cx="243.44" cy="233.026" r="1.933"/>
		<g id="XMLID_410_">
			<linearGradient id="SVGID_2_" gradientUnits="userSpaceOnUse" x1="187.9365" y1="198.7505" x2="223.0659" y2="198.7505">
				<stop  offset="0" style="stop-color:#FF9800"/>
				<stop  offset="1" style="stop-color:#FFC107"/>
			</linearGradient>
			<path fill="url(#SVGID_2_)" d="M222.894,176.719c-0.039-0.107-0.084-0.219-0.136-0.333c-0.625-1.374-1.831-2.513-3.195-3.137
				c-2.732-1.255-5.528,0.003-8.259,0.636c-4.053,0.942-7.931,2.646-11.35,5.021c-1.438,0.997-2.818,2.139-3.741,3.622
				c-3.384,5.418,0.417,13.013-2.466,18.715c-1.408,2.79-4.263,4.729-5.315,7.672c-0.452,1.26-0.537,2.625-0.479,3.959
				c0.141,3.097,1.094,6.231,3.128,8.571c2.03,2.34,5.228,3.765,8.278,3.229c0.683-0.12,1.36-0.338,1.904-0.763
				c0.521-0.404,0.893-0.972,1.178-1.564c1.251-2.59,1.021-5.613,0.916-8.487c-0.103-2.875,0.024-5.986,1.801-8.252
				c0.773-0.985,1.804-1.73,2.688-2.617c2.307-2.317,3.921-6.101,3.847-9.381c-0.034-1.377-0.327-2.744-0.261-4.12
				c0.069-1.374,0.586-2.836,1.763-3.548c0.607-0.369,1.322-0.5,2.004-0.691c3.147-0.891,4.91-3.078,6.84-5.53
				C222.873,178.665,223.338,177.954,222.894,176.719z"/>
		</g>
	</g>
	<path opacity="0.2" fill="#3C5185" d="M358.841,96.628l-31.009-17.996v18.009c0,3.862,2.739,8.602,6.083,10.534l28.68,16.557
		v-20.586C362.595,100.759,360.906,97.827,358.841,96.628z"/>
	<g id="XMLID_399_">
		<linearGradient id="XMLID_17_" gradientUnits="userSpaceOnUse" x1="334.1274" y1="88.2295" x2="375.7583" y2="88.2295">
			<stop  offset="0" style="stop-color:#FFFFFF"/>
			<stop  offset="1" style="stop-color:#FF9800"/>
		</linearGradient>
		<path id="XMLID_408_" fill="url(#XMLID_17_)" d="M335.185,55.336l-1.058,0.752v36.853c0,3.862,2.733,8.604,6.079,10.533
			l31.536,18.353l2.496-1.225c0.93-0.454,1.52-1.397,1.52-2.433V82.95c0-3.862-2.751-8.582-6.108-10.489l-30.378-17.327
			C337.989,54.398,336.391,54.478,335.185,55.336z"/>
		<linearGradient id="XMLID_18_" gradientUnits="userSpaceOnUse" x1="332.2729" y1="88.8765" x2="373.9038" y2="88.8765">
			<stop  offset="0" style="stop-color:#FF9800"/>
			<stop  offset="1" style="stop-color:#FFC107"/>
		</linearGradient>
		<path id="XMLID_407_" fill="url(#XMLID_18_)" d="M338.38,56.504c-3.361-1.907-6.107-0.307-6.107,3.555v33.623
			c0,3.862,2.737,8.604,6.084,10.534l29.468,17.014c3.341,1.931,6.079,0.351,6.079-3.513V83.691c0-3.863-2.746-8.582-6.107-10.49
			L338.38,56.504z"/>
		<g id="XMLID_400_">
			<path id="XMLID_405_" fill="#FFFFFF" d="M342.966,87.421c1.334,0.75,2.39,0.897,3.175,0.438l1.843,2.564
				c-1.288,0.6-2.866,0.373-4.736-0.68c-1.872-1.053-3.449-2.443-4.729-4.172c-1.279-1.729-1.97-3.389-2.077-4.985
				c-0.104-1.594,0.425-2.579,1.588-2.951c1.161-0.375,2.636-0.057,4.421,0.946c1.994,1.121,3.709,2.732,5.138,4.833l-1.574,0.745
				c-0.916-1.427-2.016-2.499-3.292-3.216c-1.021-0.574-1.869-0.77-2.555-0.588c-0.687,0.185-0.996,0.773-0.932,1.775
				c0.066,0.999,0.464,1.995,1.186,2.986C341.143,86.106,341.992,86.873,342.966,87.421z"/>
			<path id="XMLID_403_" fill="#FFFFFF" d="M352.518,93.229l-0.181-2.771l-3.04-1.71l-0.126-1.894l3.041,1.71l-0.181-2.77l2.4,1.349
				l0.181,2.771l3.039,1.712l0.125,1.892l-3.04-1.71l0.181,2.771L352.518,93.229z"/>
			<path id="XMLID_401_" fill="#FFFFFF" d="M362.67,98.938l-0.182-2.771l-3.044-1.71l-0.125-1.893l3.04,1.711l-0.18-2.771
				l2.398,1.351l0.182,2.77l3.044,1.712l0.124,1.892l-3.04-1.711l0.182,2.769L362.67,98.938z"/>
		</g>
	</g>
	<path opacity="0.2" fill="#3C5185" d="M362.595,137.351l-36.385-20.755c-1.813-1.037-4.065-0.923-5.766,0.288l-1.491,1.062v0.008
		c-1.606,0.891-2.613,2.823-2.613,5.59v47.405c0,5.446,3.856,12.128,8.573,14.852l37.682,21.756V137.351z"/>
	<g>
		<path id="XMLID_398_" fill="#0FAA7F" d="M327.841,110.964l-1.492,1.062v51.959c0,5.444,3.858,12.127,8.576,14.851l44.464,25.873
			l3.517-1.725c1.312-0.641,2.141-1.971,2.141-3.431v-49.655c0-5.445-3.877-12.101-8.611-14.788l-42.829-24.433
			C331.794,109.643,329.542,109.755,327.841,110.964z"/>
		<path id="XMLID_397_" fill="#0FDBA1" d="M332.347,112.613c-4.737-2.689-8.611-0.434-8.611,5.012v47.404
			c0,5.445,3.857,12.131,8.574,14.852l41.548,23.988c4.718,2.724,8.574,0.496,8.574-4.95v-47.975c0-5.445-3.874-12.1-8.611-14.789
			L332.347,112.613z"/>
		<g id="XMLID_392_" opacity="0.32">
			<path id="XMLID_395_" fill="#231F20" d="M345.076,143.782l-0.673-0.43c-0.946-0.555-1.416-0.401-1.416,0.465l-0.005,6.952
				c0,1.176-0.396,1.808-1.189,1.895c0.793,1,1.189,2.087,1.189,3.264l-0.004,7.251c0,0.733,0.694,1.508,2.086,2.327v4.061
				l-1.769-1.042c-3.213-1.891-4.82-4.422-4.82-7.595l0.007-6.819c0-0.908-0.245-1.508-0.74-1.798l-1.479-0.872l0.005-4.06
				l1.479,0.871c0.491,0.29,0.739-0.03,0.739-0.962l0.004-6.688c0-3.171,1.61-3.81,4.82-1.918l1.767,1.039V143.782z"/>
			<path id="XMLID_393_" fill="#231F20" d="M358.767,173.607l0.678,0.432c0.94,0.554,1.413,0.399,1.413-0.466l0.003-6.954
				c0-1.174,0.401-1.807,1.189-1.896c-0.788-0.997-1.186-2.086-1.186-3.261l0.004-7.252c0-0.73-0.697-1.508-2.089-2.327l0.004-4.061
				l1.767,1.041c3.215,1.892,4.816,4.424,4.816,7.593l-0.003,6.822c0,0.91,0.243,1.509,0.738,1.8l1.479,0.869l-0.006,4.058
				l-1.474-0.87c-0.495-0.291-0.743,0.031-0.743,0.962l-0.005,6.688c0,3.172-1.605,3.814-4.82,1.92l-1.767-1.039V173.607z"/>
		</g>
		<g id="XMLID_387_">
			<path id="XMLID_390_" fill="#EBE9EC" d="M340.43,142.62l-2.325,1.162l0.23,5.828c0,1.175-0.396,1.804-1.188,1.893
				c0.789,0.999,1.188,2.088,1.185,3.263v7.25c-0.005,0.733,0.695,1.507,2.085,2.327l-0.003,4.061l-2.321,1.163
				c-3.213-1.892-4.263-6.627-4.263-9.796l0.004-6.821c0-0.908-0.242-1.507-0.738-1.798l-1.479-0.87l0.005-4.059l1.477,0.869
				c0.494,0.291,0.74-0.031,0.74-0.962l0.004-6.687c0-3.169,1.607-3.811,4.82-1.92l1.769,1.041V142.62z"/>
			<path id="XMLID_388_" fill="#EBE9EC" d="M354.122,172.445l0.677,0.432c0.941,0.553,1.413,0.398,1.413-0.467l0.003-6.952
				c0-1.174,0.397-1.806,1.191-1.895c-0.794-1-1.187-2.086-1.187-3.261l0.004-7.254c0-0.731-0.698-1.508-2.09-2.328l-2.321-2.897
				l2.321-1.161l1.768,1.042c3.217,1.891,4.819,4.422,4.819,7.592l-0.004,6.819c0,0.91,0.244,1.509,0.739,1.801l1.479,0.869
				l-0.003,4.058l-2.323,1.162c-0.495-0.291,0.101,5.619,0.101,5.619c0,3.17-4.258,4.144-4.258,4.144l-2.329-3.263V172.445z"/>
		</g>
		<polygon fill="#EBE9EC" points="329.295,147.381 332.781,147.381 332.781,149.759 329.923,149.179 		"/>
		<g id="XMLID_382_">
			<path id="XMLID_385_" fill="#FFFFFF" d="M338.105,143.782l-0.675-0.43c-0.945-0.555-1.415-0.401-1.415,0.465l-0.005,6.952
				c0,1.176-0.396,1.808-1.189,1.895c0.794,1,1.189,2.087,1.189,3.264l-0.005,7.251c0,0.733,0.695,1.508,2.087,2.327v4.061
				l-1.769-1.042c-3.213-1.891-4.818-4.422-4.818-7.595l0.004-6.819c0-0.908-0.244-1.508-0.735-1.798l-1.479-0.872v-4.06
				l1.479,0.871c0.491,0.29,0.739-0.03,0.739-0.962l0.004-6.688c0-3.171,1.611-3.81,4.824-1.918l1.768,1.039L338.105,143.782z"/>
			<path id="XMLID_383_" fill="#FFFFFF" d="M351.8,173.607l0.673,0.432c0.94,0.554,1.417,0.399,1.417-0.466l0.003-6.954
				c0-1.174,0.397-1.807,1.189-1.896c-0.792-0.997-1.189-2.086-1.189-3.261l0.004-7.252c0-0.73-0.692-1.508-2.088-2.327l0.003-4.061
				l1.768,1.041c3.214,1.892,4.815,4.424,4.815,7.593l-0.004,6.822c0,0.91,0.247,1.509,0.74,1.8l1.477,0.869v4.058l-1.477-0.87
				c-0.495-0.291-0.74,0.031-0.744,0.962v6.688c-0.005,3.172-1.61,3.814-4.823,1.92l-1.769-1.039L351.8,173.607z"/>
		</g>
	</g>
	<g id="XMLID_369_">
		<path id="XMLID_381_" fill="#CA6F61" d="M391.908,108.111l-0.689,0.49v24.02c0,2.517,1.783,5.607,3.964,6.866l20.556,11.961
			l1.626-0.797c0.607-0.299,0.992-0.912,0.992-1.586v-22.955c0-2.519-1.794-5.594-3.982-6.837l-19.799-11.296
			C393.737,107.498,392.695,107.548,391.908,108.111z"/>
		<linearGradient id="XMLID_19_" gradientUnits="userSpaceOnUse" x1="416.2842" y1="151.5972" x2="391.3201" y2="108.8809">
			<stop  offset="0" style="stop-color:#FF9966"/>
			<stop  offset="0.0337" style="stop-color:#FF9466"/>
			<stop  offset="0.2758" style="stop-color:#FF7864"/>
			<stop  offset="0.5185" style="stop-color:#FF6462"/>
			<stop  offset="0.7602" style="stop-color:#FF5861"/>
			<stop  offset="1" style="stop-color:#FF5461"/>
		</linearGradient>
		<path id="XMLID_380_" fill="url(#XMLID_19_)" d="M393.992,108.871c-2.188-1.242-3.979-0.199-3.979,2.318v21.915
			c0,2.517,1.783,5.606,3.964,6.866l19.204,11.089c2.181,1.257,3.965,0.227,3.965-2.288v-22.178c0-2.52-1.791-5.596-3.979-6.836
			L393.992,108.871z"/>
		<g id="XMLID_370_">
			<path id="XMLID_376_" fill="#FFFFFF" d="M398.201,124.776c0.487,0.791,0.718,1.71,0.701,2.756
				c-0.016,1.047-0.276,1.665-0.791,1.857c-0.514,0.19-1.29-0.017-2.325-0.62l-0.935-0.542l-0.036,2.361l-1.567-0.91l0.129-8.475
				l2.483,1.444C396.936,123.274,397.717,123.985,398.201,124.776z M397.002,127.44c0.191-0.146,0.289-0.463,0.298-0.954
				c0.004-0.488-0.111-0.906-0.35-1.255c-0.244-0.349-0.62-0.672-1.137-0.973l-0.897-0.52l-0.04,2.849l1.053,0.613
				C396.453,127.506,396.808,127.583,397.002,127.44z"/>
			<path id="XMLID_374_" fill="#FFFFFF" d="M404.536,127.698l1.566,0.91l-0.128,8.475l-1.565-0.91l0.05-3.335l-2.793-1.625
				l-0.054,3.335l-1.565-0.912l0.133-8.476l1.565,0.913l-0.054,3.54l2.791,1.624L404.536,127.698z"/>
			<path id="XMLID_371_" fill="#FFFFFF" d="M412.656,133.186c0.483,0.791,0.719,1.71,0.702,2.757
				c-0.017,1.046-0.28,1.667-0.793,1.856c-0.515,0.191-1.288-0.016-2.329-0.618l-0.935-0.544L409.264,139l-1.564-0.91l0.133-8.475
				l2.478,1.443C411.388,131.686,412.169,132.394,412.656,133.186z M411.454,135.85c0.191-0.146,0.29-0.462,0.298-0.952
				c0.008-0.487-0.106-0.906-0.351-1.255c-0.24-0.349-0.62-0.67-1.136-0.972l-0.894-0.521L409.328,135l1.058,0.614
				C410.905,135.916,411.259,135.997,411.454,135.85z"/>
		</g>
	</g>
	<g id="XMLID_357_">
		<path id="XMLID_368_" fill="#FF6F61" d="M389.113,67.654l-0.526,0.375V86.41c0,1.927,1.367,4.291,3.036,5.253l15.727,9.153
			l1.248-0.609c0.461-0.228,0.755-0.698,0.755-1.214V81.427c0-1.927-1.371-4.281-3.048-5.233l-15.15-8.643
			C390.515,67.186,389.718,67.225,389.113,67.654z"/>
		<path id="XMLID_367_" fill="#FF9966" d="M390.709,68.235c-1.677-0.95-3.048-0.152-3.048,1.774v16.77
			c0,1.927,1.367,4.291,3.035,5.253l14.698,8.486c1.669,0.963,3.032,0.176,3.032-1.752v-16.97c0-1.926-1.372-4.28-3.044-5.232
			L390.709,68.235z"/>
		<g id="XMLID_358_">
			<path id="XMLID_365_" fill="#FFFFFF" d="M392.147,78.403l0.969,0.568l-0.04,5l-0.97-0.568l0.015-1.966l-1.729-1.014l-0.016,1.968
				l-0.969-0.57l0.043-5l0.966,0.568L390.4,79.48l1.729,1.011L392.147,78.403z"/>
			<path id="XMLID_363_" fill="#FFFFFF" d="M396.016,81.64l-0.032,4.036l-0.972-0.567l0.032-4.035l-1.229-0.721l0.008-0.967
				l3.432,2.011l-0.007,0.966L396.016,81.64z"/>
			<path id="XMLID_361_" fill="#FFFFFF" d="M401.84,85.948l-1.198,2.042l-0.578-0.339l-1.146-3.417l-0.027,3.146l-0.967-0.567
				l0.041-5l1.309,0.768l1.1,3.404l1.148-2.089l1.305,0.767l-0.041,5l-0.972-0.569L401.84,85.948z"/>
			<path id="XMLID_359_" fill="#FFFFFF" d="M403.855,90.288l0.042-4.999l0.969,0.567l-0.033,4.007l1.852,1.085l-0.008,0.994
				L403.855,90.288z"/>
		</g>
	</g>
	<path opacity="0.2" fill="#3C5185" d="M270.901,95.231l33.185,19.161c1.667,0.963,3.18,1.111,4.374,0.645l0.044,0.028l0.385-0.188
		c0.016-0.009,0.033-0.015,0.051-0.026l2.374-1.164c1.049-0.512,1.71-1.576,1.71-2.741V71.283c0-0.428-0.055-0.867-0.109-1.309
		l-47.932-27.816c-0.574,0.824-0.93,1.931-0.93,3.346v37.867C264.052,87.718,267.134,93.058,270.901,95.231z"/>
	<g>
		<path id="XMLID_197_" fill="#0FAA7F" d="M273.246,35.746l-1.188,0.848v41.502c0,4.349,3.08,9.689,6.849,11.863l35.518,20.667
			l2.807-1.378c1.046-0.511,1.712-1.576,1.712-2.742V66.845c0-4.351-3.093-9.667-6.876-11.813l-34.211-19.514
			C276.406,34.688,274.61,34.78,273.246,35.746z"/>
		<path id="XMLID_196_" fill="#0FDBA1" d="M276.847,37.063c-3.782-2.149-6.876-0.346-6.876,4.003V78.93
			c0,4.352,3.082,9.689,6.847,11.864l33.186,19.162c3.767,2.174,6.852,0.395,6.852-3.955V67.679c0-4.348-3.097-9.666-6.88-11.813
			L276.847,37.063z"/>
		<g id="XMLID_191_">
			<path id="XMLID_194_" fill="#FFFFFF" d="M283.381,63.677v-2.796l7.693,4.407v9.507c0,1.739-0.453,2.778-1.362,3.12
				c-0.908,0.341-2.077,0.105-3.498-0.712c-1.776-1.016-3.33-2.577-4.65-4.685l1.71-1.355c0.888,1.454,1.817,2.46,2.792,3.017
				c0.463,0.265,0.864,0.317,1.193,0.151c0.33-0.165,0.496-0.6,0.496-1.312l0.004-6.837L283.381,63.677z"/>
			<path id="XMLID_192_" fill="#FFFFFF" d="M298.043,72.185c-0.319,0.077-0.475,0.327-0.475,0.75c0,0.424,0.189,0.872,0.577,1.344
				c0.39,0.472,1.284,1.279,2.685,2.422c1.404,1.144,2.491,2.279,3.269,3.404c0.776,1.125,1.164,2.343,1.159,3.648
				c0,1.306-0.495,2.082-1.487,2.326c-0.995,0.243-2.305-0.098-3.925-1.024c-2.336-1.341-4.441-3.4-6.316-6.186l1.965-1.251
				c1.589,2.288,3.064,3.82,4.419,4.593c0.604,0.349,1.078,0.49,1.425,0.431c0.348-0.057,0.518-0.306,0.518-0.743
				c0-0.438-0.182-0.893-0.551-1.359c-0.368-0.466-1.09-1.142-2.176-2.027c-1.719-1.39-2.978-2.633-3.771-3.736
				c-0.797-1.104-1.196-2.346-1.196-3.729c0-1.382,0.507-2.16,1.511-2.336c1.008-0.171,2.268,0.173,3.774,1.036
				c0.988,0.564,1.975,1.298,2.964,2.197c0.985,0.898,1.844,1.862,2.575,2.893l-1.669,1.423c-1.285-1.695-2.609-2.933-3.978-3.715
				C298.791,72.229,298.357,72.109,298.043,72.185z"/>
		</g>
	</g>
	<g>
		<g>
			<path fill="#CA6F61" d="M237.91,465.042c-0.004-0.925-1.31-1.677-2.921-1.677l-6.223,0.004c-1.034,0-2.739,1.083-2.999,0.76
				c-0.426-0.542-0.272-1.173,0.459-1.595l4.398-2.534c1.14-0.656-6.101-0.351-7.235-1.006l0.058-5.495
				c-1.141-0.654-2.986-0.654-4.123,0.003l-4.436,2.554c-0.698,0.4-1.75,0.516-2.655,0.292c-0.637-0.156-1.316-0.312-1.907-0.444
				c-0.927-0.209-1.524-0.719-1.524-1.289v-3.62c0-0.928-1.306-1.678-2.917-1.678h-10.146c-1.611,0-2.916,0.75-2.916,1.678v3.585
				c0,0.591-0.665,1.098-1.631,1.309c-0.607,0.132-1.212,0.276-1.802,0.434c-0.938,0.249-2.035,0.161-2.771-0.258l-4.415-2.528
				c-1.146-0.654-2.99-0.651-4.125,0.006l-0.525,5.975c-1.135,0.655-7.761-0.115-6.617,0.538l4.453,2.546
				c0.698,0.401,0.9,1.006,0.512,1.528c-0.27,0.365-2.016-0.709-3.003-0.709l-6.294,0.007c-1.606,0.005-2.912,0.756-2.908,1.683
				l0.026,8.526c0.004,0.926,1.313,1.674,2.923,1.674l3.65-0.005l-0.086,7.04c-0.025,0.122-0.025,0.244-0.005,0.366l0,0l0,0
				c0.067,0.374,0.336,0.734,0.83,1.02l7.19,4.12c0.698,0.4,1.652,0.524,2.558,0.434l0.05,0.026v-0.033
				c0.554-0.06,1.091-0.184,1.516-0.431l4.432-2.559c0.693-0.402,1.742-0.518,2.654-0.295c0.633,0.155,1.315,0.312,1.905,0.443
				c0.925,0.207,1.527,0.718,1.527,1.287l0.014,3.62c0,0.927,1.308,1.677,2.919,1.674l10.148-0.008
				c1.604-0.001,2.912-0.756,2.907-1.681l-0.009-3.585c0-0.593,0.665-1.103,1.628-1.312c0.582-0.126,1.156-0.265,1.719-0.413
				c0.939-0.246,2.04-0.159,2.766,0.26l4.41,2.533c0.431,0.246,0.963,0.367,1.517,0.429v0.048l0.074-0.039
				c0.899,0.084,1.846-0.042,2.536-0.44l7.166-4.134c0.471-0.272,0.735-0.616,0.813-0.968l0.033-0.016v-0.166
				c0-0.027,0-0.052-0.005-0.076l-0.085-7.201l3.583-0.002c1.611,0,2.916-0.751,2.916-1.678L237.91,465.042z M214.955,472.157
				c-1.686,5.16-10.978,8.075-19.333,6.223c-6.349-1.406-10.212-5.356-8.953-9.203c1.688-5.161,10.977-8.077,19.333-6.224
				C212.349,464.36,216.214,468.31,214.955,472.157z"/>
			<path fill="#CA6F61" d="M231.508,455.339l-0.03-4.581h-6.569l-1.462-0.84c-1.141-0.654-2.986-0.654-4.123,0.001l-1.457,0.838
				h-9.065v-3.345c0-0.928-1.306-1.679-2.917-1.679h-10.146c-1.611,0-2.916,0.751-2.916,1.679v3.345h-9.214l-1.404-0.803
				c-1.146-0.655-2.99-0.65-4.125,0.005l-1.377,0.798h-6.616v4.48c-0.023,0.446,0.257,0.895,0.851,1.236l4.453,2.546l50.837-0.068
				l4.398-2.534c0.523-0.301,0.794-0.688,0.838-1.08H231.508z"/>
			<g id="XMLID_186_">
				<path id="XMLID_187_" fill="#FF6F61" d="M227.047,467.189l7.954-0.003c1.611,0,2.916-0.751,2.916-1.678l-0.008-5.838
					c-0.004-0.927-1.31-1.679-2.921-1.677l-6.223,0.001c-1.034,0.003-1.921-0.381-2.284-0.937c-0.219-0.335-0.455-0.665-0.715-0.99
					c-0.426-0.54-0.272-1.172,0.459-1.591l4.398-2.536c1.14-0.658,1.14-1.72,0-2.374l-7.178-4.128
					c-1.141-0.655-2.986-0.655-4.123,0.003l-4.436,2.554c-0.698,0.403-1.746,0.517-2.655,0.294
					c-0.637-0.157-1.316-0.314-1.907-0.446c-0.927-0.209-1.524-0.719-1.524-1.289v-3.62c0-0.928-1.306-1.679-2.917-1.679h-10.146
					c-1.611,0-2.916,0.751-2.916,1.679v3.583c0,0.592-0.665,1.103-1.631,1.31c-0.607,0.133-1.212,0.278-1.802,0.434
					c-0.938,0.248-2.035,0.161-2.771-0.258l-4.415-2.528c-1.146-0.653-2.99-0.65-4.125,0.007l-7.155,4.14
					c-1.136,0.657-1.131,1.72,0.013,2.373l4.453,2.546c0.698,0.402,0.9,1.004,0.512,1.528c-0.27,0.363-0.54,0.757-0.769,1.097
					c-0.358,0.532-1.247,0.879-2.234,0.881l-6.294,0.008c-1.606,0.002-2.912,0.756-2.908,1.683l0.026,5.837
					c0.004,0.928,1.313,1.676,2.923,1.676l6.228-0.011c1.034-0.002,1.917,0.382,2.285,0.936c0.218,0.334,0.458,0.665,0.714,0.988
					c0.43,0.54,0.281,1.174-0.449,1.592l-4.395,2.541c-1.136,0.656-1.132,1.72,0.007,2.373l7.19,4.122
					c1.141,0.653,2.987,0.649,4.123-0.006l4.432-2.56c0.693-0.402,1.742-0.517,2.654-0.294c0.633,0.154,1.315,0.312,1.905,0.441
					c0.925,0.209,1.527,0.718,1.527,1.289l0.014,3.62c0,0.927,1.308,1.678,2.919,1.675l10.148-0.008
					c1.604-0.003,2.912-0.756,2.907-1.682l-0.009-3.583c0-0.594,0.665-1.104,1.628-1.313c0.582-0.126,1.156-0.265,1.719-0.414
					c0.939-0.245,2.04-0.157,2.766,0.26l4.41,2.532c1.146,0.655,2.992,0.655,4.127-0.002l7.166-4.135
					c1.135-0.654,1.135-1.718-0.004-2.373l-4.444-2.551c-0.698-0.4-0.902-1.004-0.513-1.528
					C226.349,468.291,227.014,467.252,227.047,467.189z M186.668,461.115c1.688-5.161,10.977-8.077,19.333-6.224
					c6.348,1.406,10.213,5.359,8.953,9.204c-1.686,5.162-10.978,8.077-19.333,6.224C189.273,468.912,185.41,464.962,186.668,461.115
					z"/>
			</g>
		</g>
	</g>
	<g>
		<g>
			<linearGradient id="XMLID_20_" gradientUnits="userSpaceOnUse" x1="115.9126" y1="465.6479" x2="49.5148" y2="335.33">
				<stop  offset="0" style="stop-color:#0FDBA1"/>
				<stop  offset="0.0642" style="stop-color:#1DDDA7"/>
				<stop  offset="0.2513" style="stop-color:#41E2B5"/>
				<stop  offset="0.4397" style="stop-color:#5EE7C0"/>
				<stop  offset="0.6276" style="stop-color:#72EAC8"/>
				<stop  offset="0.8146" style="stop-color:#7EEBCC"/>
				<stop  offset="1" style="stop-color:#82ECCE"/>
			</linearGradient>
			<path id="XMLID_185_" fill="url(#XMLID_20_)" d="M12.822,370.118c0,0,0.574-10.358,0.905-10.569l34.654-20.027
				c3.491-2.016,7.79-2.014,11.279,0.002l81.437,47.087c1.688,0.974,3.068,3.367,3.068,5.316v51.219
				c0,3.277-1.747,6.306-4.586,7.946l-36.632,21.162L25.806,419.25L12.822,370.118z"/>
			<path id="XMLID_184_" fill="#F6F9FC" d="M12.822,361.531c0-1.948,1.385-2.746,3.067-1.771l85.443,49.34
				c1.688,0.975,3.068,3.368,3.068,5.316v55.396c0,2.138-2.312,3.473-4.163,2.406l-84.133-48.586
				c-2.033-1.173-3.283-3.342-3.283-5.688V361.531z"/>
			<linearGradient id="XMLID_21_" gradientUnits="userSpaceOnUse" x1="12.8218" y1="391.1714" x2="104.4009" y2="391.1714">
				<stop  offset="0.8244" style="stop-color:#0FDBA1"/>
				<stop  offset="0.8357" style="stop-color:#1DDDA7"/>
				<stop  offset="0.8685" style="stop-color:#41E2B5"/>
				<stop  offset="0.9016" style="stop-color:#5EE7C0"/>
				<stop  offset="0.9346" style="stop-color:#72EAC8"/>
				<stop  offset="0.9674" style="stop-color:#7EEBCC"/>
				<stop  offset="1" style="stop-color:#82ECCE"/>
			</linearGradient>
			<path id="XMLID_183_" fill="url(#XMLID_21_)" d="M101.333,409.099l-85.443-49.34c-1.683-0.975-3.067-0.177-3.067,1.771v8.587
				L104.401,423v-8.584C104.401,412.467,103.021,410.074,101.333,409.099z"/>
			<path id="XMLID_182_" fill="#FFFFFF" d="M17.104,365.568c-0.756-0.438-1.37-0.081-1.37,0.792s0.614,1.946,1.37,2.383
				c0.761,0.436,1.376,0.079,1.376-0.794C18.48,367.075,17.865,366.003,17.104,365.568z"/>
			<path id="XMLID_181_" fill="#FFFFFF" d="M22.104,368.265c-0.758-0.436-1.378-0.079-1.378,0.795c0,0.873,0.62,1.945,1.378,2.38
				c0.752,0.438,1.374,0.082,1.374-0.792S22.856,368.702,22.104,368.265z"/>
			<path id="XMLID_180_" fill="#FFFFFF" d="M27.098,370.964c-0.755-0.438-1.375-0.081-1.375,0.792c0,0.875,0.62,1.945,1.375,2.384
				c0.757,0.436,1.376,0.079,1.376-0.794C28.474,372.472,27.855,371.401,27.098,370.964z"/>
			<polygon id="XMLID_179_" fill="#3C5185" points="27.376,383.447 56.228,400.106 56.228,401.995 27.376,385.336 			"/>
			<polygon id="XMLID_178_" fill="#3C5185" points="15.734,376.748 25.636,382.503 25.636,384.393 15.734,378.638 			"/>
			<linearGradient id="XMLID_23_" gradientUnits="userSpaceOnUse" x1="20.6851" y1="388.3511" x2="28.9194" y2="388.3511">
				<stop  offset="0" style="stop-color:#FF9800"/>
				<stop  offset="0.6264" style="stop-color:#FFB004"/>
				<stop  offset="1" style="stop-color:#FFC107"/>
			</linearGradient>
			<polygon id="XMLID_177_" fill="url(#XMLID_23_)" points="20.685,385.024 28.919,389.789 28.919,391.678 20.685,386.915 			"/>
			<polygon id="XMLID_176_" fill="#3C5185" points="30.333,390.538 41.538,397.062 41.538,398.952 30.333,392.427 			"/>
			<polygon id="XMLID_175_" fill="#3C5185" points="48.417,406.507 101.495,437.163 101.495,439.051 48.417,408.399 			"/>
			<linearGradient id="XMLID_29_" gradientUnits="userSpaceOnUse" x1="39.2876" y1="404.0728" x2="45.7954" y2="404.0728">
				<stop  offset="0" style="stop-color:#FF9800"/>
				<stop  offset="0.6264" style="stop-color:#FFB004"/>
				<stop  offset="1" style="stop-color:#FFC107"/>
			</linearGradient>
			<polygon id="XMLID_174_" fill="url(#XMLID_29_)" points="39.288,401.251 45.795,405.001 45.795,406.894 39.288,403.143 			"/>
			<polygon id="XMLID_173_" fill="#3C5185" points="15.734,387.688 36.333,399.583 36.333,401.473 15.734,389.581 			"/>
			<polygon id="XMLID_172_" fill="#3C5185" points="30.908,401.995 50.978,413.588 50.978,415.477 30.908,403.884 			"/>
			<linearGradient id="XMLID_30_" gradientUnits="userSpaceOnUse" x1="25.1714" y1="400.8872" x2="29.6724" y2="400.8872">
				<stop  offset="0" style="stop-color:#FF9800"/>
				<stop  offset="0.6264" style="stop-color:#FFB004"/>
				<stop  offset="1" style="stop-color:#FFC107"/>
			</linearGradient>
			<polygon id="XMLID_168_" fill="url(#XMLID_30_)" points="25.171,398.631 29.672,401.251 29.672,403.143 25.171,400.52 			"/>
			<polygon id="XMLID_167_" fill="#3C5185" points="33.31,408.735 97.132,445.54 97.132,447.43 33.31,410.624 			"/>
			<polygon id="XMLID_166_" fill="#3C5185" points="18.554,400.308 31.588,407.789 31.588,409.682 18.554,402.198 			"/>
			<polygon id="XMLID_165_" fill="#3C5185" points="40.324,418.344 101.495,453.573 101.495,455.462 40.324,420.236 			"/>
			<polygon id="XMLID_164_" fill="#3C5185" points="25.072,409.572 38.606,417.4 38.606,419.29 25.072,411.461 			"/>
			<linearGradient id="XMLID_31_" gradientUnits="userSpaceOnUse" x1="15.7339" y1="407.3628" x2="23.7817" y2="407.3628">
				<stop  offset="0" style="stop-color:#FF9800"/>
				<stop  offset="0.6264" style="stop-color:#FFB004"/>
				<stop  offset="1" style="stop-color:#FFC107"/>
			</linearGradient>
			<polygon id="XMLID_163_" fill="url(#XMLID_31_)" points="15.734,404.101 23.782,408.735 23.782,410.624 15.734,405.991 			"/>
			<linearGradient id="XMLID_32_" gradientUnits="userSpaceOnUse" x1="30.3335" y1="420.2861" x2="34.9624" y2="420.2861">
				<stop  offset="0" style="stop-color:#FF9800"/>
				<stop  offset="0.6264" style="stop-color:#FFB004"/>
				<stop  offset="1" style="stop-color:#FFC107"/>
			</linearGradient>
			<polygon id="XMLID_162_" fill="url(#XMLID_32_)" points="30.333,418.013 34.962,420.667 34.962,422.559 30.333,419.903 			"/>
			<polygon id="XMLID_161_" fill="#3C5185" points="24.443,414.532 28.919,417.067 28.919,418.958 24.443,416.423 			"/>
			<polygon id="XMLID_160_" fill="#3C5185" points="41.802,429.991 101.495,464.515 101.495,466.406 41.802,431.882 			"/>
			<polygon id="XMLID_159_" fill="#3C5185" points="27.818,421.966 37.742,427.711 37.742,429.602 27.818,423.855 			"/>
			<linearGradient id="XMLID_33_" gradientUnits="userSpaceOnUse" x1="15.7339" y1="417.4722" x2="20.937" y2="417.4722">
				<stop  offset="0" style="stop-color:#FF9800"/>
				<stop  offset="0.6264" style="stop-color:#FFB004"/>
				<stop  offset="1" style="stop-color:#FFC107"/>
			</linearGradient>
			<polygon id="XMLID_158_" fill="url(#XMLID_33_)" points="15.734,415.042 20.937,418.013 20.937,419.903 15.734,416.933 			"/>
		</g>
		<g>
			<g id="XMLID_156_">
				<path id="XMLID_157_" opacity="0.3" fill="#3C5185" d="M102.757,372.225c-1.502,1.109-3.015,1.949-4.506,2.588l-0.339,0.193
					l-0.024-0.04c-12.273,4.97-23.443-4.352-23.443-4.352c-2.368-2.144-3.199-7.639-2.997-11.478
					c-0.239-0.87-0.491-1.911-0.797-3.203c-0.728-3.056-1.069-6.881-1.124-11.039l49.099,28.347v0.843l-9.528-5.5L102.757,372.225z"
					/>
			</g>
			<g id="XMLID_154_">
				<linearGradient id="XMLID_34_" gradientUnits="userSpaceOnUse" x1="76.4644" y1="356.2949" x2="118.3774" y2="356.2949">
					<stop  offset="0" style="stop-color:#3C5185"/>
					<stop  offset="0.128" style="stop-color:#41588E"/>
					<stop  offset="0.6948" style="stop-color:#5573B1"/>
					<stop  offset="1" style="stop-color:#5D7DBE"/>
				</linearGradient>
				<path id="XMLID_155_" fill="url(#XMLID_34_)" d="M82.864,365.559l22.719-13.042v13.951l12.795,7.389v-23.632
					c0-4.149-2.143-7.864-5.736-9.937c-3.594-2.075-7.884-2.073-11.474,0.001l-24.703,14.187L82.864,365.559z"/>
			</g>
			<g id="XMLID_152_">
				<linearGradient id="XMLID_40_" gradientUnits="userSpaceOnUse" x1="88.0806" y1="362.9839" x2="129.9907" y2="362.9839">
					<stop  offset="0" style="stop-color:#3C5185"/>
					<stop  offset="0.128" style="stop-color:#41588E"/>
					<stop  offset="0.6948" style="stop-color:#5573B1"/>
					<stop  offset="1" style="stop-color:#5D7DBE"/>
				</linearGradient>
				<path id="XMLID_153_" fill="url(#XMLID_40_)" d="M94.476,372.43l22.717-13.042v13.59l12.798,7.388v-23.271
					c0-4.147-2.146-7.862-5.74-9.936c-3.594-2.075-7.884-2.075-11.474,0.001l-24.696,14.187L94.476,372.43z"/>
			</g>
			<linearGradient id="XMLID_45_" gradientUnits="userSpaceOnUse" x1="67.9775" y1="361.8569" x2="99.3208" y2="361.8569">
				<stop  offset="0" style="stop-color:#3C5185"/>
				<stop  offset="0.128" style="stop-color:#41588E"/>
				<stop  offset="0.6948" style="stop-color:#5573B1"/>
				<stop  offset="1" style="stop-color:#5D7DBE"/>
			</linearGradient>
			<path id="XMLID_151_" fill="url(#XMLID_45_)" d="M99.321,369.649c-14.021,10.335-28.311-1.613-28.311-1.613
				c-3.053-2.759-3.563-11.1-2.577-14.265l3.87-3.915l20.042,11.148L99.321,369.649z"/>
			<g id="XMLID_81_">
				<linearGradient id="XMLID_46_" gradientUnits="userSpaceOnUse" x1="92.2554" y1="328.4067" x2="130.8218" y2="328.4067">
					<stop  offset="0.0038" style="stop-color:#A5CBEF"/>
					<stop  offset="0.2136" style="stop-color:#B2D3F1"/>
					<stop  offset="0.6044" style="stop-color:#D5E7F8"/>
					<stop  offset="1" style="stop-color:#FFFFFF"/>
				</linearGradient>
				<path id="XMLID_150_" fill="url(#XMLID_46_)" d="M130.181,324.875l-28.918-16.698c-0.393-0.225-0.881,0.056-0.881,0.508
					l-8.127,22.151c0,0.454,0.243,0.876,0.636,1.103l28.919,16.698c0.392,0.227,0.67-0.061,0.88-0.508l8.132-22.151
					C130.822,325.52,130.579,325.102,130.181,324.875z"/>
				<path id="XMLID_148_" fill="#3C5185" d="M129.808,325.125l-28.921-16.697c-0.389-0.228-0.727,0.119-0.881,0.504l-8.128,22.153
					c0,0.455,0.243,0.876,0.636,1.103l28.924,16.698c0.393,0.226,0.652-0.076,0.88-0.507l8.129-22.152
					C130.447,325.771,130.202,325.352,129.808,325.125z"/>
				
					<linearGradient id="XMLID_47_" gradientUnits="userSpaceOnUse" x1="4128.6919" y1="328.6997" x2="4164.1782" y2="328.6997" gradientTransform="matrix(-1 0 0 1 4257.5635 0)">
					<stop  offset="0" style="stop-color:#FF9800"/>
					<stop  offset="0.6264" style="stop-color:#FFB004"/>
					<stop  offset="1" style="stop-color:#FFC107"/>
				</linearGradient>
				<polygon id="XMLID_147_" fill="url(#XMLID_47_)" points="128.872,326.196 100.812,310.329 93.385,330.991 121.342,347.07 				
					"/>
				<linearGradient id="XMLID_48_" gradientUnits="userSpaceOnUse" x1="72.0645" y1="346.8027" x2="121.7446" y2="346.8027">
					<stop  offset="0.0038" style="stop-color:#A5CBEF"/>
					<stop  offset="0.2136" style="stop-color:#B2D3F1"/>
					<stop  offset="0.6044" style="stop-color:#D5E7F8"/>
					<stop  offset="1" style="stop-color:#FFFFFF"/>
				</linearGradient>
				<path id="XMLID_146_" fill="url(#XMLID_48_)" d="M90.594,332.887l-18.518,9.769c0,0-0.104,1.445,0.292,1.675l28.373,16.381
					c0.728,0.419,1.618,0.421,2.342,0.004l18.227-10.416c0.755-0.47,0.297-1.679,0.297-1.679l-28.671-15.731
					C92.214,332.474,91.322,332.472,90.594,332.887z"/>
				<path id="XMLID_145_" fill="#FFFFFF" d="M90.594,331.766l-18.226,10.418c-0.396,0.227-0.396,0.796,0,1.026l28.373,16.382
					c0.728,0.419,1.618,0.421,2.342,0.006l18.227-10.418c0.396-0.228,0.399-0.797,0.004-1.026l-28.378-16.382
					C92.214,331.353,91.322,331.351,90.594,331.766z"/>
				<path id="XMLID_144_" fill="#D1E1F2" d="M88.98,345.256l-4.805,2.746c-0.105,0.058-0.105,0.211,0,0.27l7.48,4.316
					c0.19,0.111,0.426,0.111,0.616,0.003l4.803-2.747c0.104-0.059,0.104-0.209,0-0.271l-7.479-4.317
					C89.405,345.147,89.169,345.147,88.98,345.256z"/>
				<path id="XMLID_143_" fill="#D1E1F2" d="M92.606,333.357l1.57,0.907c0.061,0.036,0.061,0.126,0,0.16l-0.781,0.45
					c-0.063,0.036-0.14,0.036-0.202,0l-1.57-0.907c-0.06-0.036-0.06-0.127,0-0.162l0.781-0.448
					C92.466,333.322,92.541,333.322,92.606,333.357z"/>
				<path id="XMLID_142_" fill="#D1E1F2" d="M94.906,334.729l1.57,0.907c0.061,0.035,0.061,0.126,0,0.16l-0.78,0.449
					c-0.063,0.037-0.141,0.037-0.203,0l-1.569-0.907c-0.062-0.035-0.062-0.125,0-0.16l0.779-0.449
					C94.766,334.692,94.844,334.692,94.906,334.729z"/>
				<path id="XMLID_141_" fill="#D1E1F2" d="M97.215,336.025l1.568,0.907c0.063,0.036,0.063,0.125,0,0.163l-0.779,0.448
					c-0.063,0.035-0.141,0.035-0.203,0l-1.568-0.907c-0.063-0.037-0.063-0.125,0-0.163l0.78-0.448
					C97.075,335.991,97.153,335.991,97.215,336.025z"/>
				<path id="XMLID_140_" fill="#D1E1F2" d="M99.594,337.366l1.569,0.906c0.062,0.036,0.062,0.126,0,0.164l-0.781,0.447
					c-0.062,0.035-0.14,0.035-0.202,0l-1.568-0.906c-0.063-0.036-0.063-0.126,0-0.163l0.778-0.448
					C99.454,337.329,99.533,337.329,99.594,337.366z"/>
				<path id="XMLID_139_" fill="#D1E1F2" d="M101.876,338.64l1.57,0.906c0.067,0.035,0.067,0.126,0,0.161l-0.78,0.45
					c-0.062,0.035-0.136,0.035-0.203-0.001l-1.568-0.907c-0.062-0.036-0.062-0.127,0-0.161l0.78-0.448
					C101.738,338.602,101.817,338.605,101.876,338.64z"/>
				<path id="XMLID_138_" fill="#D1E1F2" d="M104.099,340.01l1.57,0.907c0.065,0.036,0.065,0.127,0,0.16l-0.78,0.449
					c-0.063,0.036-0.137,0.036-0.203,0l-1.568-0.907c-0.063-0.035-0.063-0.125,0-0.164l0.779-0.447
					C103.959,339.974,104.039,339.974,104.099,340.01z"/>
				<path id="XMLID_137_" fill="#D1E1F2" d="M106.426,341.292l1.572,0.906c0.062,0.037,0.062,0.128-0.005,0.164l-0.776,0.448
					c-0.061,0.038-0.14,0.038-0.201,0l-1.57-0.907c-0.066-0.034-0.066-0.126,0-0.161l0.776-0.45
					C106.288,341.255,106.364,341.255,106.426,341.292z"/>
				<path id="XMLID_136_" fill="#D1E1F2" d="M108.718,342.656l1.568,0.908c0.067,0.037,0.067,0.125,0,0.162l-0.78,0.448
					c-0.062,0.037-0.136,0.037-0.199,0l-1.573-0.907c-0.061-0.037-0.061-0.125,0-0.163l0.78-0.448
					C108.578,342.621,108.656,342.621,108.718,342.656z"/>
				<path id="XMLID_135_" fill="#D1E1F2" d="M110.973,343.986l1.569,0.906c0.062,0.038,0.062,0.127,0,0.164l-0.781,0.448
					c-0.063,0.035-0.14,0.035-0.202,0l-1.57-0.907c-0.062-0.036-0.062-0.125,0-0.163l0.781-0.449
					C110.832,343.952,110.911,343.952,110.973,343.986z"/>
				<path id="XMLID_130_" fill="#D1E1F2" d="M113.346,345.356l1.571,0.906c0.061,0.037,0.061,0.126,0,0.164l-0.781,0.448
					c-0.063,0.035-0.137,0.035-0.202,0l-1.569-0.907c-0.063-0.037-0.063-0.128,0-0.163l0.78-0.447
					C113.207,345.32,113.286,345.32,113.346,345.356z"/>
				<path id="XMLID_129_" fill="#D1E1F2" d="M115.656,346.651l1.568,0.906c0.064,0.035,0.064,0.125,0,0.162l-0.779,0.448
					c-0.063,0.036-0.141,0.036-0.204,0l-1.566-0.905c-0.064-0.037-0.064-0.128,0-0.163l0.779-0.448
					C115.516,346.614,115.589,346.615,115.656,346.651z"/>
				<g id="XMLID_117_">
					<path id="XMLID_128_" fill="#D1E1F2" d="M89.41,335.065l1.064-0.625c0.138-0.08,0.311-0.08,0.446,0l1.041,0.6
						c0.145,0.084,0.148,0.293,0.006,0.382l-1.033,0.633c-0.142,0.085-0.314,0.087-0.455,0.006l-1.065-0.614
						C89.265,335.362,89.265,335.152,89.41,335.065z"/>
					<path id="XMLID_127_" fill="#D1E1F2" d="M91.792,336.437l1.066-0.624c0.137-0.081,0.305-0.081,0.446-0.002l1.04,0.602
						c0.146,0.084,0.146,0.292,0.006,0.38l-1.035,0.633c-0.139,0.086-0.313,0.09-0.457,0.007l-1.066-0.614
						C91.648,336.734,91.648,336.521,91.792,336.437z"/>
					<path id="XMLID_126_" fill="#D1E1F2" d="M94.105,337.733l1.064-0.622c0.138-0.083,0.306-0.083,0.448-0.002l1.04,0.601
						c0.145,0.083,0.145,0.292,0.004,0.38l-1.037,0.634c-0.136,0.085-0.309,0.087-0.455,0.007l-1.064-0.614
						C93.96,338.032,93.957,337.82,94.105,337.733z"/>
					<path id="XMLID_125_" fill="#D1E1F2" d="M96.567,339.074l1.061-0.621c0.142-0.082,0.312-0.082,0.451-0.003l1.036,0.6
						c0.145,0.084,0.148,0.293,0.003,0.381l-1.031,0.635c-0.137,0.085-0.313,0.087-0.455,0.006l-1.064-0.615
						C96.418,339.373,96.418,339.16,96.567,339.074z"/>
					<path id="XMLID_124_" fill="#D1E1F2" d="M98.732,340.348l1.064-0.625c0.136-0.082,0.31-0.082,0.446,0l1.041,0.6
						c0.145,0.084,0.148,0.293,0.003,0.38l-1.031,0.635c-0.142,0.086-0.314,0.087-0.455,0.006l-1.063-0.614
						C98.585,340.645,98.585,340.433,98.732,340.348z"/>
					<path id="XMLID_123_" fill="#D1E1F2" d="M100.937,341.71l1.061-0.621c0.14-0.082,0.311-0.082,0.45-0.002l1.037,0.599
						c0.145,0.084,0.147,0.292,0.003,0.382l-1.03,0.635c-0.138,0.084-0.314,0.086-0.455,0.005l-1.065-0.613
						C100.789,342.011,100.789,341.797,100.937,341.71z"/>
					<path id="XMLID_122_" fill="#D1E1F2" d="M103.287,343.001l1.065-0.624c0.136-0.081,0.31-0.081,0.446-0.001l1.04,0.601
						c0.145,0.084,0.148,0.293,0.004,0.38l-1.031,0.633c-0.141,0.087-0.314,0.089-0.455,0.007l-1.065-0.612
						C103.142,343.298,103.142,343.086,103.287,343.001z"/>
					<path id="XMLID_121_" fill="#D1E1F2" d="M105.591,344.306l1.063-0.624c0.139-0.08,0.312-0.08,0.447,0l1.037,0.6
						c0.148,0.085,0.148,0.293,0.008,0.38l-1.032,0.634c-0.141,0.086-0.313,0.088-0.454,0.008l-1.069-0.615
						C105.446,344.604,105.446,344.393,105.591,344.306z"/>
					<path id="XMLID_120_" fill="#D1E1F2" d="M107.855,345.696l1.064-0.623c0.138-0.08,0.31-0.083,0.445-0.002l1.042,0.6
						c0.145,0.084,0.147,0.292,0.005,0.38l-1.033,0.634c-0.142,0.086-0.313,0.088-0.455,0.008l-1.064-0.614
						C107.709,345.993,107.709,345.78,107.855,345.696z"/>
					<path id="XMLID_119_" fill="#D1E1F2" d="M110.324,347.148l1.062-0.622c0.141-0.082,0.309-0.082,0.446-0.001l1.04,0.6
						c0.145,0.084,0.148,0.292,0.005,0.379l-1.032,0.634c-0.137,0.087-0.314,0.089-0.456,0.008l-1.064-0.614
						C110.175,347.445,110.175,347.235,110.324,347.148z"/>
					<path id="XMLID_118_" fill="#D1E1F2" d="M112.553,348.358l1.063-0.624c0.141-0.081,0.31-0.081,0.451,0l1.036,0.599
						c0.146,0.085,0.148,0.293,0.007,0.38l-1.036,0.636c-0.136,0.084-0.313,0.087-0.453,0.007l-1.067-0.614
						C112.41,348.656,112.406,348.444,112.553,348.358z"/>
				</g>
				<g id="XMLID_105_">
					<path id="XMLID_116_" fill="#D1E1F2" d="M87.039,336.354l1.064-0.622c0.138-0.08,0.312-0.082,0.447-0.001l1.04,0.599
						c0.146,0.085,0.149,0.293,0.005,0.381l-1.033,0.635c-0.141,0.084-0.313,0.087-0.454,0.006l-1.065-0.613
						C86.895,336.654,86.895,336.44,87.039,336.354z"/>
					<path id="XMLID_115_" fill="#D1E1F2" d="M89.42,337.724l1.066-0.622c0.137-0.08,0.306-0.08,0.447,0l1.041,0.598
						c0.143,0.084,0.146,0.293,0.002,0.38l-1.03,0.636c-0.141,0.085-0.314,0.087-0.455,0.004l-1.071-0.612
						C89.278,338.023,89.278,337.812,89.42,337.724z"/>
					<path id="XMLID_114_" fill="#D1E1F2" d="M91.735,339.022L92.8,338.4c0.136-0.082,0.305-0.082,0.445-0.002l1.042,0.601
						c0.145,0.084,0.145,0.292,0.003,0.38l-1.032,0.635c-0.141,0.085-0.313,0.087-0.454,0.006l-1.069-0.613
						C91.589,339.322,91.589,339.109,91.735,339.022z"/>
					<path id="XMLID_113_" fill="#D1E1F2" d="M94.197,340.363l1.061-0.622c0.141-0.082,0.31-0.083,0.449-0.002l1.037,0.6
						c0.146,0.083,0.149,0.291,0.01,0.38l-1.037,0.635c-0.136,0.084-0.313,0.089-0.455,0.005l-1.064-0.612
						C94.052,340.662,94.047,340.449,94.197,340.363z"/>
					<path id="XMLID_112_" fill="#D1E1F2" d="M96.364,341.636l1.062-0.624c0.143-0.081,0.311-0.081,0.446,0l1.04,0.599
						c0.146,0.085,0.149,0.293,0.006,0.382l-1.033,0.634c-0.141,0.085-0.313,0.087-0.455,0.006l-1.065-0.615
						C96.216,341.933,96.216,341.723,96.364,341.636z"/>
					<path id="XMLID_111_" fill="#D1E1F2" d="M98.566,343l1.062-0.622c0.14-0.081,0.311-0.083,0.449-0.001l1.036,0.601
						c0.146,0.082,0.15,0.29,0.011,0.38l-1.038,0.633c-0.137,0.085-0.313,0.089-0.453,0.007l-1.066-0.612
						C98.417,343.298,98.417,343.086,98.566,343z"/>
					<path id="XMLID_110_" fill="#D1E1F2" d="M100.92,344.29l1.062-0.624c0.14-0.08,0.31-0.08,0.449,0l1.036,0.599
						c0.146,0.086,0.149,0.293,0.005,0.38l-1.032,0.634c-0.141,0.086-0.313,0.089-0.454,0.008l-1.065-0.615
						C100.771,344.587,100.771,344.375,100.92,344.29z"/>
					<path id="XMLID_109_" fill="#D1E1F2" d="M103.22,345.595l1.065-0.624c0.137-0.08,0.306-0.08,0.446,0l1.04,0.6
						c0.145,0.084,0.145,0.292,0.005,0.379l-1.033,0.637c-0.14,0.085-0.313,0.086-0.454,0.006l-1.065-0.615
						C103.076,345.893,103.076,345.681,103.22,345.595z"/>
					<path id="XMLID_108_" fill="#D1E1F2" d="M105.484,346.986l1.064-0.625c0.138-0.081,0.312-0.081,0.447-0.002l1.041,0.602
						c0.144,0.082,0.148,0.292,0.004,0.379l-1.033,0.635c-0.141,0.084-0.313,0.089-0.454,0.006l-1.066-0.613
						C105.339,347.282,105.339,347.07,105.484,346.986z"/>
					<path id="XMLID_107_" fill="#D1E1F2" d="M107.955,348.436l1.06-0.621c0.141-0.081,0.312-0.083,0.451-0.003l1.037,0.599
						c0.144,0.085,0.148,0.293,0.003,0.383l-1.032,0.634c-0.136,0.084-0.314,0.087-0.453,0.005l-1.065-0.614
						C107.804,348.734,107.804,348.523,107.955,348.436z"/>
					<path id="XMLID_106_" fill="#D1E1F2" d="M110.183,349.646l1.063-0.62c0.14-0.083,0.31-0.083,0.448-0.004l1.039,0.6
						c0.144,0.085,0.147,0.293,0.007,0.383l-1.037,0.634c-0.135,0.084-0.309,0.086-0.454,0.005l-1.065-0.612
						C110.038,349.946,110.034,349.733,110.183,349.646z"/>
				</g>
				<g id="XMLID_93_">
					<path id="XMLID_104_" fill="#D1E1F2" d="M84.672,337.642l1.062-0.62c0.14-0.082,0.31-0.084,0.445-0.003l1.042,0.601
						c0.144,0.082,0.147,0.291,0.005,0.38l-1.034,0.634c-0.136,0.084-0.314,0.086-0.454,0.006l-1.065-0.613
						C84.523,337.942,84.523,337.729,84.672,337.642z"/>
					<path id="XMLID_103_" fill="#D1E1F2" d="M87.051,339.014l1.065-0.624c0.136-0.078,0.311-0.082,0.445,0l1.041,0.599
						c0.146,0.084,0.149,0.293,0.004,0.381l-1.031,0.633c-0.142,0.085-0.314,0.087-0.455,0.006l-1.065-0.612
						C86.907,339.313,86.907,339.101,87.051,339.014z"/>
					<path id="XMLID_102_" fill="#D1E1F2" d="M89.363,340.311l1.066-0.621c0.137-0.082,0.311-0.084,0.446-0.003l1.041,0.601
						c0.146,0.082,0.148,0.291,0.004,0.38l-1.034,0.634c-0.139,0.084-0.312,0.088-0.453,0.006l-1.066-0.613
						C89.218,340.61,89.218,340.397,89.363,340.311z"/>
					<path id="XMLID_101_" fill="#D1E1F2" d="M91.825,341.653l1.066-0.624c0.137-0.08,0.306-0.083,0.446-0.002l1.035,0.602
						c0.15,0.081,0.15,0.291,0.01,0.379l-1.037,0.634c-0.137,0.084-0.313,0.089-0.454,0.007l-1.066-0.614
						C91.677,341.951,91.677,341.737,91.825,341.653z"/>
					<path id="XMLID_100_" fill="#D1E1F2" d="M93.994,342.925l1.062-0.621c0.14-0.081,0.31-0.084,0.45-0.003l1.036,0.599
						c0.145,0.085,0.147,0.292,0.005,0.382l-1.033,0.635c-0.135,0.084-0.313,0.086-0.454,0.006l-1.065-0.613
						C93.844,343.225,93.844,343.011,93.994,342.925z"/>
					<path id="XMLID_99_" fill="#D1E1F2" d="M96.195,344.29l1.063-0.624c0.14-0.08,0.311-0.082,0.449-0.002l1.036,0.601
						c0.148,0.086,0.148,0.292,0.01,0.38l-1.037,0.634c-0.138,0.085-0.313,0.089-0.455,0.006l-1.065-0.613
						C96.05,344.587,96.046,344.375,96.195,344.29z"/>
					<path id="XMLID_98_" fill="#D1E1F2" d="M98.549,345.579l1.061-0.623c0.141-0.082,0.311-0.082,0.451,0l1.036,0.598
						c0.145,0.085,0.147,0.293,0.004,0.382l-1.032,0.635c-0.141,0.085-0.313,0.087-0.454,0.006l-1.065-0.616
						C98.401,345.876,98.401,345.665,98.549,345.579z"/>
					<path id="XMLID_97_" fill="#D1E1F2" d="M100.851,346.884l1.063-0.623c0.138-0.081,0.311-0.083,0.445-0.002l1.042,0.602
						c0.145,0.083,0.149,0.291,0.005,0.38l-1.033,0.634c-0.141,0.084-0.314,0.086-0.453,0.006l-1.066-0.615
						C100.705,347.183,100.705,346.97,100.851,346.884z"/>
					<path id="XMLID_96_" fill="#D1E1F2" d="M103.114,348.272l1.064-0.622c0.14-0.081,0.31-0.081,0.445-0.003l1.042,0.602
						c0.145,0.083,0.148,0.293,0.004,0.38l-1.032,0.634c-0.141,0.084-0.314,0.089-0.454,0.006l-1.065-0.612
						C102.967,348.57,102.967,348.358,103.114,348.272z"/>
					<path id="XMLID_95_" fill="#D1E1F2" d="M105.583,349.725l1.061-0.622c0.142-0.081,0.31-0.082,0.451-0.002l1.037,0.602
						c0.144,0.083,0.147,0.29,0.008,0.38l-1.037,0.633c-0.136,0.085-0.309,0.087-0.453,0.006l-1.066-0.613
						C105.434,350.024,105.434,349.812,105.583,349.725z"/>
					<path id="XMLID_94_" fill="#D1E1F2" d="M107.812,350.936l1.066-0.622c0.136-0.082,0.306-0.083,0.447-0.002l1.035,0.601
						c0.149,0.082,0.149,0.291,0.008,0.38l-1.031,0.634c-0.141,0.085-0.313,0.088-0.459,0.007l-1.066-0.613
						C107.668,351.234,107.668,351.021,107.812,350.936z"/>
				</g>
				<g id="XMLID_82_">
					<path id="XMLID_92_" fill="#D1E1F2" d="M82.301,338.933l1.061-0.625c0.142-0.079,0.311-0.081,0.451,0l1.037,0.601
						c0.143,0.082,0.149,0.294,0.003,0.38l-1.032,0.634c-0.14,0.085-0.313,0.088-0.454,0.007l-1.065-0.613
						C82.152,339.23,82.152,339.017,82.301,338.933z"/>
					<path id="XMLID_91_" fill="#D1E1F2" d="M84.681,340.302l1.065-0.623c0.135-0.081,0.31-0.081,0.445,0l1.041,0.599
						c0.144,0.085,0.147,0.293,0.003,0.382l-1.031,0.634c-0.141,0.084-0.313,0.087-0.454,0.006l-1.065-0.614
						C84.537,340.602,84.537,340.389,84.681,340.302z"/>
					<path id="XMLID_90_" fill="#D1E1F2" d="M86.993,341.602l1.066-0.625c0.136-0.08,0.31-0.08,0.445-0.002l1.042,0.602
						c0.145,0.085,0.148,0.292,0.003,0.38l-1.031,0.634c-0.142,0.086-0.314,0.088-0.455,0.006l-1.064-0.612
						C86.848,341.898,86.848,341.686,86.993,341.602z"/>
					<path id="XMLID_89_" fill="#D1E1F2" d="M89.456,342.941l1.064-0.625c0.136-0.079,0.306-0.082,0.448-0.001l1.035,0.6
						c0.148,0.086,0.148,0.294,0.008,0.382l-1.036,0.634c-0.136,0.084-0.312,0.088-0.455,0.006l-1.064-0.613
						C89.31,343.239,89.31,343.026,89.456,342.941z"/>
					<path id="XMLID_88_" fill="#D1E1F2" d="M91.825,344.356l1.066-0.624c0.137-0.08,0.306-0.08,0.446-0.002l5.405,3.124
						c0.148,0.084,0.148,0.294,0.01,0.381l-1.037,0.636c-0.138,0.085-0.313,0.087-0.455,0.006l-5.436-3.138
						C91.677,344.653,91.677,344.441,91.825,344.356z"/>
					<path id="XMLID_87_" fill="#D1E1F2" d="M98.479,348.171l1.064-0.622c0.138-0.079,0.31-0.082,0.448-0.001l1.04,0.601
						c0.144,0.082,0.148,0.292,0.004,0.379l-1.033,0.635c-0.139,0.084-0.313,0.088-0.453,0.006l-1.066-0.614
						C98.334,348.471,98.334,348.258,98.479,348.171z"/>
					<path id="XMLID_86_" fill="#D1E1F2" d="M100.746,349.562l1.063-0.624c0.141-0.081,0.31-0.081,0.45,0l1.036,0.599
						c0.146,0.085,0.149,0.293,0.004,0.38l-1.032,0.636c-0.14,0.086-0.314,0.087-0.455,0.007l-1.065-0.615
						C100.597,349.859,100.597,349.649,100.746,349.562z"/>
					<path id="XMLID_85_" fill="#D1E1F2" d="M103.211,351.016l1.066-0.624c0.136-0.08,0.305-0.08,0.445-0.002l1.037,0.602
						c0.148,0.082,0.148,0.29,0.008,0.38l-1.031,0.634c-0.142,0.084-0.319,0.088-0.459,0.006l-1.066-0.614
						C103.068,351.313,103.068,351.1,103.211,351.016z"/>
					<path id="XMLID_83_" fill="#D1E1F2" d="M105.444,352.226l1.063-0.624c0.136-0.081,0.306-0.083,0.445-0.002l1.041,0.601
						c0.146,0.084,0.146,0.293,0.005,0.38l-1.032,0.633c-0.141,0.085-0.315,0.09-0.459,0.006l-1.063-0.613
						C105.298,352.523,105.293,352.31,105.444,352.226z"/>
				</g>
			</g>
			<g id="XMLID_80_">
				<path fill="#F2B1B5" d="M84.387,356.759c-0.533-0.056-1.054-0.262-1.5-0.63l-15.103-12.496
					c-5.125-4.239-6.749-11.414-3.944-17.446l7.247-15.583c0.657-1.408,2.326-2.02,3.734-1.363c1.408,0.655,2.016,2.325,1.363,3.733
					l-7.249,15.583c-1.727,3.716-0.73,8.135,2.429,10.746l15.104,12.497c1.199,0.989,1.364,2.76,0.376,3.957
					C86.22,356.507,85.292,356.851,84.387,356.759z"/>
			</g>
			<g id="XMLID_78_">
				<path id="XMLID_79_" fill="#FFFFFF" d="M65.311,331.34c-0.505-0.053-1.009-0.187-1.492-0.412
					c-2.346-1.09-3.357-3.872-2.271-6.213l7.675-16.5c1.085-2.344,3.872-3.363,6.21-2.271c2.342,1.089,3.356,3.871,2.271,6.213
					L70.03,328.66C69.168,330.516,67.24,331.539,65.311,331.34z"/>
			</g>
			<path id="XMLID_77_" fill="#FFFFFF" d="M96.551,324.166c0.289-4.673-0.717-9.126-2.314-12.264
				c-1.994-3.909-5.364-7.291-9.065-9.429l-3.654-2.107c-4.688-2.708-8.059,1.281-10.547,6.088
				c-8.927,17.24-0.519,41.233-5.403,57.385c0,0,16.986,8.026,21.642,8.029c6.607,0.008,16.891-1.75,15.901-4.397
				C95.192,346.313,95.756,337.132,96.551,324.166z"/>
			<path id="XMLID_76_" fill="#F2B1B5" d="M83.64,306.974L83.64,306.974c1.742,0,3.156-1.413,3.156-3.157v-7.005
				c0-1.745-1.414-3.158-3.156-3.158l0,0c-1.747,0-3.16,1.413-3.16,3.158v7.005C80.48,305.563,81.893,306.974,83.64,306.974z"/>
			<g id="XMLID_74_">
				<path id="XMLID_75_" fill="#F2B1B5" d="M107.842,354.558c-1.416,0-4.854,0.032-5.506-1.333l-9.4,1.209
					c-1.668,0.215-3.238-0.754-3.869-2.311c-2.615-6.454-3.833-13.455-3.536-20.416l0.658-15.421
					c0.086-2.096,1.882-3.696,3.952-3.631c2.097,0.087,3.725,1.86,3.634,3.953l-0.657,15.422c-0.279,6.695-0.619,7.09,2.265,13.142
					l13.638,4.26c1.923-0.021,3.566,2.177,3.298,2.979C112.042,353.231,108.391,354.558,107.842,354.558z"/>
			</g>
			<g id="XMLID_64_">
				<path id="XMLID_72_" fill="#FFFFFF" d="M89.289,340.018c-0.054,0-0.106,0-0.159-0.002c-2.396-0.086-4.269-2.1-4.181-4.493
					l0.693-19.229c0.088-2.396,2.115-4.29,4.494-4.18c2.395,0.087,4.266,2.101,4.18,4.494l-0.694,19.226
					C93.535,338.177,91.61,340.018,89.289,340.018z"/>
			</g>
			<path id="XMLID_62_" fill="#F2B1B5" d="M76.045,303.609L76.045,303.609V281.84h18.853v2.916
				C94.898,295.167,86.456,303.609,76.045,303.609z"/>
			<path id="XMLID_61_" fill="#F2B1B5" d="M106.24,351.144l7.384,0.102c0.476,0.006,0.868-0.375,0.872-0.852l0,0
				c0.007-0.478-0.371-0.869-0.852-0.875l-7.379-0.104c-0.481-0.007-0.872,0.376-0.876,0.853l0,0
				C105.379,350.746,105.76,351.137,106.24,351.144z"/>
			<path id="XMLID_59_" fill="#F2B1B5" d="M102.526,350.668l7.216-1.567c0.462-0.102,0.761-0.56,0.659-1.026l0,0
				c-0.102-0.466-0.56-0.762-1.027-0.66l-7.216,1.566c-0.466,0.103-0.763,0.562-0.659,1.027l0,0
				C101.596,350.474,102.059,350.772,102.526,350.668z"/>
			<g>
				<path fill="#1B1464" d="M98.369,276.018c-1.505-1.022-3.82-0.994-5.729-0.402c-1.776,0.551-3.395,1.492-5.146,2.081
					c-1.499,0.506-3.088,0.045-4.617-0.274c-1.561-0.327-3.25-0.556-4.696,0.109c-1.449,0.664-2.428,2.563-1.586,3.917
					c-1.929,0.845-3.473,2.523-4.158,4.515c-0.393,1.144-0.149,1.786-0.021,2.909c0.145,1.245-0.033,2.565-0.159,3.805
					c-0.371,3.733-0.762,6.808,1.729,9.88c1.453,1.789,4.345,2.405,6.492,1.306c0.449-0.231,0.844-0.574,1.19-0.947
					c0.925-1.004,1.58-2.256,1.874-3.59c0.148-0.68,0.206-1.383,0.471-2.026c0.265-0.643,0.797-1.237,1.488-1.322
					c1.205-0.146,2.563,1.727,3.706,0.74c0.525-0.456,0.418-1.326,0.06-1.922c-0.409-0.685-1.062-1.188-1.582-1.794
					c-0.521-0.605-0.93-1.426-0.69-2.189c0.488-1.584,3.395-2.464,4.742-3.03c2.113-0.886,4.194-1.953,5.843-3.576
					c1.327-1.309,2.36-3.048,2.354-4.913C99.928,277.709,99.309,276.656,98.369,276.018z"/>
			</g>
		</g>
	</g>
</g>
</svg>
