<?xml version="1.0" encoding="utf-8"?>
<!-- Generator: Adobe Illustrator 16.0.0, SVG Export Plug-In . SVG Version: 6.00 Build 0)  -->
<!DOCTYPE svg PUBLIC "-//W3C//DTD SVG 1.1//EN" "http://www.w3.org/Graphics/SVG/1.1/DTD/svg11.dtd">
<svg version="1.1" id="Capa_1" xmlns="http://www.w3.org/2000/svg" xmlns:xlink="http://www.w3.org/1999/xlink" x="0px" y="0px"
	 width="81.39px" height="81.391px" viewBox="0 0 81.39 81.391" enable-background="new 0 0 81.39 81.391" xml:space="preserve">
<path fill="#FBAC18" d="M0,40.695c0-4.386,13.581-8.047,31.736-8.973C32.657,13.582,36.316,0,40.695,0
	c4.391,0,8.037,13.582,8.971,31.723c18.141,0.926,31.724,4.587,31.724,8.973c0,4.382-13.583,8.041-31.724,8.971
	c-0.934,18.143-4.58,31.725-8.971,31.725c-4.379,0-8.039-13.582-8.959-31.725C13.581,48.736,0,45.077,0,40.695z"/>
</svg>
