<?xml version="1.0" encoding="utf-8"?>
<!-- Generator: Adobe Illustrator 16.0.0, SVG Export Plug-In . SVG Version: 6.00 Build 0)  -->
<!DOCTYPE svg PUBLIC "-//W3C//DTD SVG 1.1//EN" "http://www.w3.org/Graphics/SVG/1.1/DTD/svg11.dtd">
<svg version="1.1" id="Layer_1" xmlns="http://www.w3.org/2000/svg" xmlns:xlink="http://www.w3.org/1999/xlink" x="0px" y="0px"
	 width="114.382px" height="115.668px" viewBox="-146.069 384.707 114.382 115.668"
	 enable-background="new -146.069 384.707 114.382 115.668" xml:space="preserve">
<g>
	<path fill-rule="evenodd" clip-rule="evenodd" fill="#FF6F61" d="M-32.413,433.053c-1.449-5.361-4.599-7.783-10.134-7.783
		c-9.619,0-19.238,0-28.857,0c-0.422,0-0.844,0-1.35,0c0-2.346,0.162-4.529-0.025-6.684c-1.313-15.08-12.043-27.898-26.642-31.82
		c-2.298-0.617-5.337-1.75-13.625-1.127c-5.026,0.377-9.71,2.063-14.09,4.553c-1.197,0.68-1.581,1.732-1.139,2.895
		c0.532,1.398,1.953,1.736,3.599,0.846c6.398-3.459,13.18-4.697,20.399-3.652c18.072,2.615,30.49,20.582,26.513,38.418
		c-5.143,23.059-32.098,32.953-50.847,18.645c-1.078-0.824-2.107-1.039-3.386-0.652c-1.601,0.482-3.236,0.85-5.039,1.313
		c0.687-1.518,1.209-2.859,1.884-4.117c0.736-1.373,0.576-2.498-0.32-3.773c-3.752-5.338-5.6-11.326-5.678-17.834
		c-0.068-5.637,1.312-10.934,4.004-15.896c0.317-0.588,0.575-1.32,0.531-1.963c-0.069-1.01-0.78-1.635-1.811-1.803
		c-1.083-0.178-1.854,0.287-2.386,1.207c-1.666,2.889-2.939,5.945-3.691,9.193c-0.31,1.339-0.545,2.695-0.778,4.054
		c-0.114,0.668-0.196,8.099-0.18,8.276c0.524,5.953,2.468,11.412,5.66,16.451c0.201,0.318,0.21,0.916,0.055,1.275
		c-1.037,2.398-2.14,4.77-3.229,7.146c-0.415,0.904-0.477,1.785,0.19,2.594c0.698,0.844,1.592,0.932,2.606,0.658
		c2.667-0.717,5.352-1.365,8.011-2.109c0.752-0.211,1.284-0.094,1.921,0.35c7.386,5.145,15.559,7.396,24.549,6.59
		c0.532-0.047,1.067-0.066,1.681-0.104c0,0.529,0,0.932,0,1.332c0,5.791-0.003,11.58,0.001,17.371
		c0.004,5.979,3.927,9.902,9.904,9.904c9.109,0.004,18.22,0.084,27.327-0.053c2.405-0.037,4.221,0.584,6.037,2.162
		c3.632,3.156,7.436,6.115,11.188,9.134c0.294,0.237,1.686,2.03,2.904,1.468c1.521-0.702,0.915-2.396,0.88-3.758
		c-0.074-2.873-0.016-5.748-0.007-8.623c0-0.066,0.043-0.133,0.11-0.328c1.121,0,2.288,0,3.455,0
		c5.07-0.006,8.427-2.584,9.701-7.441c0.021-0.08,0.042-0.161,0.062-0.242c0.024-0.102,0.157-1.136,0.157-1.561
		c0-14.774,0-29.551,0-44.324C-32.335,433.178-32.394,433.121-32.413,433.053z M-36.745,476.848c-0.001,3.594-1.932,5.508-5.55,5.51
		c-1.808,0.002-3.614-0.012-5.422,0.004c-1.666,0.014-2.516,0.861-2.526,2.525c-0.015,2.209-0.004,4.42-0.004,6.84
		c-0.407-0.295-0.693-0.48-0.957-0.695c-3.143-2.566-6.298-5.115-9.411-7.717c-0.815-0.682-1.66-0.973-2.718-0.971
		c-10.217,0.023-20.435,0.016-30.652,0.014c-3.685,0-5.58-1.898-5.581-5.588c-0.001-6.086,0-12.172,0-18.26c0-0.4,0-0.803,0-1.174
		c13.839-4.387,22.554-13.539,26.283-27.617c0.39,0,0.756,0,1.122,0c9.959,0,19.918-0.002,29.878,0c3.614,0,5.537,1.916,5.538,5.52
		C-36.744,449.107-36.744,462.977-36.745,476.848z"/>
	<path fill-rule="evenodd" clip-rule="evenodd" fill="#FF6F61" d="M-121.759,435.045c-0.436,0.266-0.895,0.545-1.229,0.918
		c-0.73,0.814-0.693,2,0.006,2.842c0.731,0.879,1.859,1.072,2.992,0.439c4.019-2.244,7.187-5.365,9.524-9.326
		c0.424-0.719,0.804-1.461,1.201-2.188c0.811,1.334,1.534,2.662,2.385,3.902c2.184,3.184,4.996,5.703,8.362,7.588
		c1.554,0.871,3.197,0.17,3.533-1.459c0.205-0.99-0.281-1.883-1.479-2.58c-2.322-1.352-4.336-3.057-5.994-5.17
		c-2.225-2.834-3.648-6.018-4.245-9.785c0.561,0,0.961,0,1.361,0c2.729,0,5.458,0.014,8.187-0.006
		c1.48-0.01,2.471-0.949,2.458-2.264c-0.013-1.309-1.011-2.217-2.498-2.234c-1.476-0.018-2.95-0.004-4.426-0.004
		c-1.724,0-3.448,0-5.26,0c-0.025-0.504-0.062-0.898-0.063-1.293c-0.006-2.322,0.002-4.646-0.007-6.969
		c-0.002-0.441-0.012-0.891-0.092-1.32c-0.211-1.131-1.19-1.912-2.271-1.863c-1.251,0.059-2.172,1.025-2.195,2.459
		c-0.041,2.58-0.012,5.162-0.019,7.744c-0.001,0.389-0.038,0.779-0.063,1.242c-2.394,0-4.675,0-6.955,0
		c-2.047,0-3.159,0.791-3.168,2.248c-0.01,1.475,1.084,2.26,3.146,2.26c2.236,0.002,4.474,0,6.683,0
		c0.04,0.205,0.069,0.277,0.064,0.348c-0.011,0.146-0.031,0.293-0.062,0.438C-113.163,427.104-116.432,431.797-121.759,435.045z"/>
	<path fill-rule="evenodd" clip-rule="evenodd" fill="#FF6F61" d="M-133.36,399.928c1.243-0.002,2.231-0.992,2.233-2.236
		c0.001-1.203-1.046-2.225-2.265-2.209c-1.189,0.016-2.166,0.994-2.179,2.186C-135.583,398.887-134.564,399.932-133.36,399.928z"/>
	<path fill-rule="evenodd" clip-rule="evenodd" fill="#FF6F61" d="M-57.079,462.645c1.011-0.729,1.459-1.607,1.102-2.74
		c-0.345-1.096-1.205-1.572-2.293-1.547c-0.744,0.016-0.905-0.463-1.129-0.975c-2.14-4.891-4.298-9.771-6.422-14.668
		c-0.472-1.088-1.07-1.971-2.384-1.947c-1.258,0.023-1.826,0.893-2.28,1.938c-2.124,4.896-4.288,9.775-6.411,14.672
		c-0.276,0.639-0.591,0.967-1.35,1.008c-1.32,0.068-2.243,0.893-2.153,2.043c0.063,0.799,0.561,1.564,0.982,2.65
		c-0.637,1.449-1.459,3.256-2.219,5.088c-0.218,0.525-0.397,1.143-0.342,1.691c0.108,1.064,0.813,1.734,1.874,1.883
		c1.123,0.158,1.935-0.383,2.39-1.395c0.995-2.215,1.976-4.439,2.922-6.676c0.246-0.582,0.541-0.846,1.212-0.84
		c3.612,0.031,7.225,0.031,10.838,0c0.661-0.006,0.974,0.238,1.222,0.828c0.93,2.203,1.896,4.393,2.874,6.576
		c0.577,1.283,1.703,1.818,2.852,1.412c1.304-0.461,1.845-1.75,1.255-3.164C-55.345,466.549-56.208,464.639-57.079,462.645z
		 M-72.398,458.271c1.396-3.191,2.751-6.289,4.24-9.695c1.482,3.381,2.844,6.486,4.251,9.695
		C-66.77,458.271-69.479,458.271-72.398,458.271z"/>
</g>
</svg>
