<?xml version="1.0" encoding="utf-8"?>
<!-- Generator: Adobe Illustrator 16.0.0, SVG Export Plug-In . SVG Version: 6.00 Build 0)  -->
<!DOCTYPE svg PUBLIC "-//W3C//DTD SVG 1.1//EN" "http://www.w3.org/Graphics/SVG/1.1/DTD/svg11.dtd">
<svg version="1.1" xmlns="http://www.w3.org/2000/svg" xmlns:xlink="http://www.w3.org/1999/xlink" x="0px" y="0px"
	 width="168.533px" height="171.16px" viewBox="0 0 168.533 171.16" enable-background="new 0 0 168.533 171.16"
	 xml:space="preserve">
<g id="BACKGROUND">
</g>
<g id="OBJECTS">
	<g>
		<path fill="#FFFFFF" d="M50.311,171.161h67.912c25.063,0,45.836-18.328,49.67-42.309c0.418-2.605,0.641-5.277,0.641-8.002V50.31
			c0-27.785-22.523-50.311-50.311-50.311H50.311C22.525-0.001,0,22.524,0,50.31v70.541c0,2.725,0.223,5.396,0.641,8.002
			C4.475,152.833,25.248,171.161,50.311,171.161z"/>
		<path fill="#0FDBA1" stroke="#202020" stroke-width="1.1434" stroke-linejoin="round" stroke-miterlimit="10" d="M50.311,171.161
			h67.912c16.031,0,30.299-7.506,39.508-19.186l-0.049-12.109c2.111-19.51-19.309-26.465-19.309-26.465l-36.059-15.045H85.529
			h-2.572H66.174l-36.061,15.045c0,0-20.303,6.541-19.377,25.447c0.016,0.336,0.039,0.674,0.07,1.018l-0.045,12.059
			C19.973,163.634,34.258,171.161,50.311,171.161z"/>
		<g>
			<path fill="#FFD9B8" stroke="#202020" stroke-width="1.1434" stroke-linejoin="round" stroke-miterlimit="10" d="M102.637,98.356
				L102.637,98.356V64.651H66.174v33.705l-9.021,3.764c0,0,0.713,14.963,27.635,15.281c26.924,0.318,29.629-13.996,29.629-13.996
				L102.637,98.356z"/>
			<path fill="#F5F5F3" stroke="#202020" stroke-width="1.1434" stroke-linejoin="round" stroke-miterlimit="10" d="
				M108.215,100.819c0,0-2.902,9.711-22.43,10.615C66.033,112.349,62.307,99.97,62.307,99.97l-5.154,2.15
				c0,0,1.205,15.541,28.059,15.285c0,0,24.766,0.352,29.154-13.793L108.215,100.819z"/>
		</g>
		<g>
			<path fill="#FFD9B8" stroke="#202020" stroke-width="1.1434" stroke-linejoin="round" stroke-miterlimit="10" d="M113.717,55.481
				c0,0,2.158-3.43,6.605-1.742c4.449,1.688,2.438,12.49-4.236,13.867c0,0-2.393,0.521-4.268-1.115
				C111.818,66.491,113.459,58.511,113.717,55.481z"/>
			<g>
				<g>
					
						<path fill="#FFD9B8" stroke="#202020" stroke-width="0.6108" stroke-linecap="round" stroke-linejoin="round" stroke-miterlimit="10" d="
						M119.441,57.55c0,0-3.727-1.242-6.373,4.244"/>
				</g>
				
					<path fill="#FFD9B8" stroke="#202020" stroke-width="0.6108" stroke-linecap="round" stroke-linejoin="round" stroke-miterlimit="10" d="
					M114.879,59.11c0,0,4.055,2.168,1.377,5.428"/>
			</g>
		</g>
		<g>
			<path fill="#FFD9B8" stroke="#202020" stroke-width="1.1434" stroke-linejoin="round" stroke-miterlimit="10" d="M54.816,55.481
				c0,0-2.158-3.43-6.607-1.742c-4.447,1.688-2.436,12.49,4.238,13.867c0,0,2.393,0.521,4.268-1.115
				C56.715,66.491,55.074,58.511,54.816,55.481z"/>
			<g>
				<g>
					
						<path fill="#FFD9B8" stroke="#202020" stroke-width="0.6108" stroke-linecap="round" stroke-linejoin="round" stroke-miterlimit="10" d="
						M49.092,57.55c0,0,3.727-1.242,6.371,4.244"/>
				</g>
				
					<path fill="#FFD9B8" stroke="#202020" stroke-width="0.6108" stroke-linecap="round" stroke-linejoin="round" stroke-miterlimit="10" d="
					M53.654,59.11c0,0-4.055,2.168-1.377,5.428"/>
			</g>
		</g>
		<path fill="#FFD9B8" stroke="#202020" stroke-width="1.1434" stroke-linejoin="round" stroke-miterlimit="10" d="M113.195,50.606
			c0.002,7.041-0.799,21.77-5.799,30.512c-4.699,8.209-12.467,12.625-22.65,12.889c-10.189,0.262-17.777-3.133-23.857-13.787
			c-6.082-10.652-5.791-29.482-5.791-29.482s0-25.15,28.734-25.15C114.092,25.587,113.195,50.606,113.195,50.606z"/>
		<g>
			
				<path fill="#FFD9B8" stroke="#202020" stroke-width="0.8224" stroke-linecap="round" stroke-linejoin="round" stroke-miterlimit="10" d="
				M82.877,52.114v16.783c0,0.264,0.053,0.514,0.15,0.742c0.379,0.904,1.475,1.338,2.465,1.088l2.127-0.539"/>
			<ellipse fill="#202020" cx="71.907" cy="58.938" rx="2.118" ry="2.014"/>
			<ellipse fill="#202020" cx="96.254" cy="58.938" rx="2.119" ry="2.014"/>
			
				<path fill="#FFD9B8" stroke="#202020" stroke-width="0.8224" stroke-linecap="round" stroke-linejoin="round" stroke-miterlimit="10" d="
				M75.512,74.261c0,0,2.477,1.803,8.992,1.803c5.922,0,9.621-1.803,9.621-1.803"/>
			
				<path fill="none" stroke="#202020" stroke-width="0.4746" stroke-linecap="round" stroke-linejoin="round" stroke-miterlimit="10" d="
				M82.188,79.603c0,0,3.111-0.191,5.432-1.148"/>
			<path fill="#202020" d="M89.295,50.313l16.777,4.117c0,0-0.762-4.471-7.625-6.098C91.584,46.708,89.295,50.313,89.295,50.313z"/>
			<path fill="#202020" d="M78.869,50.313l-16.777,4.117c0,0,0.762-4.471,7.625-6.098C76.58,46.708,78.869,50.313,78.869,50.313z"/>
		</g>
		<path fill="#1A1A1A" d="M113.289,40.886c0-4.178-2.836-7.965-7.242-9.674l-4.85-2.221c-4.322-1.387-8.748-2.998-13.211-3.58
			c-3.803,0.174-7.613,0.424-11.285,1.086c-2.512,0.453-4.859,1.156-7.221,1.766l-6.439,2.949c-4.404,1.709-8.16,15.162-8.16,19.34
			l0.404,6.078c-0.041,1.008,0.414,1.25,0.516,3.322v0.158c0,0,0-0.053,0-0.137c0.049,1.02,0.148,1.996,0.316,2.898
			c0,0,6.311-10.953,5.117-17.76c-0.416-2.385-0.014-4.859,1.561-6.85c0.408-0.518,0.846-1,1.313-1.441
			c2.135-2.018,4.428-3.375,6.607-4.307c0.008,0.02,0.018,0.041,0.027,0.061c0.344-0.184,0.691-0.354,1.037-0.5
			c1.344-0.566,2.98-1.215,4.555-1.242c5.369-1.389,11.469-1.299,16.697-0.063c3.043,0.721,5.918,1.527,8.158,2.828
			c0.488,0.15,0.957,0.354,1.387,0.605c0-0.002-0.002-0.004-0.002-0.006c0.092,0.059,0.182,0.121,0.273,0.18
			c0.066,0.043,0.133,0.084,0.197,0.129c0.932,0.617,1.852,1.318,2.729,2.148c0.016,0.014,0.029,0.027,0.045,0.041
			c2.293,2.191,3.068,5.275,2.33,8.162c-2.104,8.188,4.1,18.014,4.1,18.014c0.264-1.426,0.371-3.045,0.373-4.74
			c0.033,1.348,0.012,2.256,0.004,2.473L113.289,40.886z"/>
		<g>
			<path fill="none" stroke="#202020" stroke-linecap="round" stroke-linejoin="round" stroke-miterlimit="10" d="M79.211,60.313
				c0,0,3.789-6.068,8.93,0"/>
			<path fill="none" stroke="#000000" stroke-miterlimit="10" d="M79.211,59.165c0,3.383-3.182,6.121-7.107,6.121h-5.412
				c-3.926,0-7.109-2.738-7.109-6.121l0,0c0-3.379,3.184-6.119,7.109-6.119h5.412C76.029,53.046,79.211,55.786,79.211,59.165
				L79.211,59.165z"/>
			<path fill="none" stroke="#000000" stroke-miterlimit="10" d="M107.77,59.054c0,3.383-3.182,6.121-7.107,6.121H95.25
				c-3.926,0-7.109-2.738-7.109-6.121l0,0c0-3.381,3.184-6.119,7.109-6.119h5.412C104.588,52.935,107.77,55.673,107.77,59.054
				L107.77,59.054z"/>
		</g>
		<path fill="#F5F5F3" stroke="#202020" stroke-width="1.1434" stroke-linejoin="round" stroke-miterlimit="10" d="M36.584,90.162"
			/>
	</g>
</g>
<g id="DESIGNED_BY_FREEPIK">
</g>
</svg>
