<?xml version="1.0" encoding="utf-8"?>
<!-- Generator: Adobe Illustrator 16.0.0, SVG Export Plug-In . SVG Version: 6.00 Build 0)  -->
<!DOCTYPE svg PUBLIC "-//W3C//DTD SVG 1.1//EN" "http://www.w3.org/Graphics/SVG/1.1/DTD/svg11.dtd">
<svg version="1.1" xmlns="http://www.w3.org/2000/svg" xmlns:xlink="http://www.w3.org/1999/xlink" x="0px" y="0px"
	 width="168.533px" height="171.16px" viewBox="0 0 168.533 171.16" enable-background="new 0 0 168.533 171.16"
	 xml:space="preserve">
<g id="BACKGROUND">
</g>
<g id="OBJECTS">
	<g>
		<path fill="#FFFFFF" d="M50.311,171.386h67.912c14.717,0,27.955-6.32,37.154-16.391c8.172-8.945,13.156-20.85,13.156-33.918
			V50.536c0-27.787-22.523-50.311-50.311-50.311H50.311C22.525,0.226,0,22.749,0,50.536v70.541c0,13.068,4.986,24.973,13.156,33.918
			C22.355,165.065,35.594,171.386,50.311,171.386z"/>
		<path fill="#FFFFFF" stroke="#202020" stroke-width="1.0227" stroke-linejoin="round" stroke-miterlimit="10" d="M118.223,171.386
			c10.35,0,19.961-3.135,27.957-8.492c-0.035-2.043-0.066-3.475-0.066-3.475c0-22.354-25.848-35.43-25.848-35.43H89.24h-4.791
			H53.424c0,0-25.848,13.076-25.848,35.43l-0.344,6.369c6.912,3.576,14.758,5.598,23.078,5.598H118.223z"/>
		<polygon fill="#FF6F61" points="137.898,138.249 35.873,138.249 41.465,132.446 132.307,132.446 		"/>
		<polygon fill="#FF6F61" points="145.186,151.862 28.371,151.862 31.078,146.062 142.438,146.062 		"/>
		<polygon fill="#FF6F61" points="142.355,165.229 27.232,165.229 27.576,159.419 146.113,159.419 146.18,162.894 		"/>
		<g>
			<path fill="#FFD9B8" stroke="#202020" stroke-width="1.0572" stroke-linejoin="round" stroke-miterlimit="10" d="M63.166,65.452
				c0,0-1.994-3.172-6.107-1.611c-4.115,1.559-2.254,11.549,3.916,12.822c0,0,2.213,0.482,3.947-1.031
				C64.922,75.632,63.404,68.253,63.166,65.452z"/>
			<g>
				<g>
					
						<path fill="#FFD9B8" stroke="#202020" stroke-width="0.5648" stroke-linecap="round" stroke-linejoin="round" stroke-miterlimit="10" d="
						M57.873,67.364c0,0,3.447-1.15,5.893,3.924"/>
				</g>
				
					<path fill="#FFD9B8" stroke="#202020" stroke-width="0.5648" stroke-linecap="round" stroke-linejoin="round" stroke-miterlimit="10" d="
					M62.092,68.806c0,0-3.75,2.006-1.273,5.02"/>
			</g>
		</g>
		<path fill="#FFFFFF" d="M52.732,125.657"/>
		<path fill="#202020" d="M86.334,124.636l34.625,1.021c-10.371-21.043-7.352-71.594-7.352-71.594l-26.77-1.129v-0.043l-0.51,0.021
			l-0.512-0.021v0.043l-26.77,1.129c0,0,4.057,50.551-6.314,71.594L86.334,124.636z"/>
		<path fill="#FFD9B8" stroke="#202020" stroke-width="1.0227" stroke-linejoin="round" stroke-miterlimit="10" d="M98.912,112.587
			V77.196H74.217v35.281l0,0l-14.109,8.186c0,0,21.215,20.188,52.238-0.174L98.912,112.587z"/>
		<circle fill="#202020" cx="86.369" cy="54.063" r="27.322"/>
		<g>
			<path fill="#FFD9B8" stroke="#202020" stroke-width="1.0572" stroke-linejoin="round" stroke-miterlimit="10" d="M110.402,65.452
				c0,0,1.994-3.172,6.107-1.611c4.113,1.559,2.252,11.549-3.918,12.822c0,0-2.211,0.482-3.945-1.031
				C108.646,75.632,110.162,68.253,110.402,65.452z"/>
			<g>
				<g>
					
						<path fill="#FFD9B8" stroke="#202020" stroke-width="0.5648" stroke-linecap="round" stroke-linejoin="round" stroke-miterlimit="10" d="
						M115.693,67.364c0,0-3.445-1.15-5.891,3.924"/>
				</g>
				
					<path fill="#FFD9B8" stroke="#202020" stroke-width="0.5648" stroke-linecap="round" stroke-linejoin="round" stroke-miterlimit="10" d="
					M111.475,68.806c0,0,3.75,2.006,1.273,5.02"/>
			</g>
		</g>
		<path fill="#FFD9B8" stroke="#202020" stroke-width="1.154" stroke-linejoin="round" stroke-miterlimit="10" d="M110.791,56.843
			c0.002,6.402-0.66,19.797-4.811,27.746c-3.896,7.463-10.34,11.48-18.789,11.721c-8.449,0.238-14.744-2.85-19.787-12.537
			c-5.045-9.688-4.803-26.811-4.803-26.811s0-22.869,23.832-22.869C111.535,34.093,110.791,56.843,110.791,56.843z"/>
		
			<path fill="#FFD9B8" stroke="#202020" stroke-width="0.8524" stroke-linecap="round" stroke-linejoin="round" stroke-miterlimit="10" d="
			M84.996,67.253v4.352c0,0.24,0.047,0.471,0.131,0.68c0.33,0.828,1.281,1.223,2.143,0.994l1.41-0.375"/>
		<circle fill="#202020" cx="75.46" cy="63.53" r="1.841"/>
		<circle fill="#202020" cx="96.627" cy="63.53" r="1.842"/>
		
			<path fill="#FFD9B8" stroke="#202020" stroke-width="0.8524" stroke-linecap="round" stroke-linejoin="round" stroke-miterlimit="10" d="
			M78.592,77.548c0,0,2.154,1.65,7.818,1.65c5.15,0,8.365-1.65,8.365-1.65"/>
		
			<path fill="none" stroke="#202020" stroke-width="0.4919" stroke-linecap="round" stroke-linejoin="round" stroke-miterlimit="10" d="
			M84.396,82.435c0,0,2.703-0.174,4.723-1.051"/>
		<path fill="#202020" d="M81.512,55.14l-13.072,1.85c0,0,0.594-2.008,5.941-2.738C79.729,53.522,81.512,55.14,81.512,55.14z"/>
		<path fill="#202020" d="M89.818,55.14l13.072,1.85c0,0-0.596-2.008-5.943-2.738C91.602,53.522,89.818,55.14,89.818,55.14z"/>
		<path fill="#202020" d="M109.729,43.405c-0.193,0.285-0.361,0.572-0.52,0.863c-1.822-4.307-5.621-8.859-13.473-10.771
			c0.008-0.018,0.016-0.039,0.016-0.039c-14.158-4.986-20.293-1.891-20.293-1.891c-19.473,8.924-13.895,21.443-13.895,21.443
			c0.072,0.002,0.141,0,0.211,0.002c-0.057,2.238,0.277,4.447,1.391,6.094c0,0,1.48-2.662,2.139-6.145
			c15.119-0.801,23.564-9.088,27.545-14.602c1.703,3.797,15.797,8.414,15.797,8.414C112.109,41.647,109.729,43.405,109.729,43.405z"
			/>
		<g>
			
				<circle fill="none" stroke="#202020" stroke-width="0.4746" stroke-linecap="round" stroke-linejoin="round" stroke-miterlimit="10" cx="74.081" cy="64.976" r="8.577"/>
			
				<circle fill="none" stroke="#202020" stroke-width="0.4746" stroke-linecap="round" stroke-linejoin="round" stroke-miterlimit="10" cx="98.372" cy="64.976" r="8.577"/>
			
				<path fill="none" stroke="#202020" stroke-width="0.4746" stroke-linecap="round" stroke-linejoin="round" stroke-miterlimit="10" d="
				M82.658,65.688c0,0,3.029-4.656,7.137,0"/>
		</g>
		<polygon fill="#202020" points="57.871,107.118 71.936,109.271 72.092,135.366 50.008,135.142 		"/>
		<polygon fill="#202020" points="116.051,109.286 101.986,111.437 101.83,137.532 123.914,137.31 		"/>
	</g>
</g>
<g id="DESIGNED_BY_FREEPIK">
</g>
</svg>
